# MagicaVoxel @ Ephtracy

# group
o 

# material
mtllib Grass.mtl
usemtl palette

# normals
vn -1 0 0
vn 1 0 0
vn 0 0 1
vn 0 0 -1
vn 0 -1 0
vn 0 1 0

# texcoords
vt 0.373047 0.5
vt 0.767578 0.5
vt 0.771484 0.5
vt 0.978516 0.5

# verts
v -2 0 2
v -2 0 -2
v -2 0.1 0.0999999
v -2 0.1 -2.38419e-007
v -2 0.2 0.0999999
v -2 0.2 -2.38419e-007
v -2 0.3 -0.2
v -2 0.3 -0.6
v -2 0.4 -0.2
v -2 0.4 -0.6
v -2 0.4 -1.4
v -2 0.4 -1.6
v -2 0.5 1.6
v -2 0.5 1.5
v -2 0.5 -0.7
v -2 0.5 -1.1
v -2 0.5 -1.3
v -2 0.6 1.6
v -2 0.6 1.5
v -2 0.6 1.1
v -2 0.6 1
v -2 0.7 1.1
v -2 0.7 1
v -2 0.7 0.5
v -2 0.7 -2.38419e-007
v -2 0.7 -0.7
v -2 0.7 -1.1
v -2 0.8 -1.1
v -2 0.8 -1.3
v -2 0.8 -1.4
v -2 0.8 -1.6
v -2 1 0.5
v -2 1 -2.38419e-007
v -2 1 -0.4
v -2 1 -0.7
v -2 1.1 1.8
v -2 1.1 1.6
v -2 1.2 0.6
v -2 1.2 0.4
v -2 1.2 0.0999999
v -2 1.2 -2.38419e-007
v -2 1.2 -0.4
v -2 1.2 -0.7
v -2 1.3 0.0999999
v -2 1.3 -2.38419e-007
v -2 1.4 1.8
v -2 1.4 1.6
v -2 1.4 0.6
v -2 1.4 0.4
v -2 1.4 -0.9
v -2 1.4 -1.4
v -2 1.7 1.6
v -2 1.7 1.4
v -2 1.7 -0.9
v -2 1.7 -1.4
v -2 1.9 -0.6
v -2 1.9 -0.8
v -2 2 1.6
v -2 2 1.4
v -2 2 1.3
v -2 2 0.4
v -2 2 -0.6
v -2 2 -0.8
v -2 2.1 -0.7
v -2 2.1 -1.5
v -2 2.2 1.4
v -2 2.2 1.3
v -2 2.4 1.2
v -2 2.4 0.9
v -2 2.4 0.5
v -2 2.4 0.4
v -2 2.5 0.5
v -2 2.5 0.4
v -2 2.5 -0.7
v -2 2.5 -1.5
v -2 2.6 1.2
v -2 2.6 0.9
v -2 2.7 0.4
v -2 2.7 -0.6
v -2 2.8 -1.1
v -2 2.8 -1.5
v -2 3 1.9
v -2 3 1.6
v -2 3 0.3
v -2 3 0.2
v -2 3 -1
v -2 3 -1.1
v -2 3 -1.5
v -2 3 -1.6
v -2 3.1 2
v -2 3.1 1.9
v -2 3.1 1.6
v -2 3.1 1.4
v -2 3.1 -0.9
v -2 3.1 -1
v -2 3.1 -1.6
v -2 3.1 -2
v -2 3.2 -1.8
v -2 3.2 -2
v -2 3.3 0.4
v -2 3.3 0.3
v -2 3.3 0.2
v -2 3.3 0.0999999
v -2 3.3 -0.4
v -2 3.3 -0.5
v -2 3.4 1.4
v -2 3.4 1
v -2 3.4 -0.3
v -2 3.4 -0.4
v -2 3.4 -0.5
v -2 3.4 -0.6
v -2 3.5 -0.6
v -2 3.5 -0.9
v -2 3.5 -1.8
v -2 3.5 -2
v -2 3.6 -2.38419e-007
v -2 3.6 -0.3
v -2 3.7 1
v -2 3.7 0.4
v -2 3.7 0.0999999
v -2 3.7 -2.38419e-007
v -2 3.9 0.0999999
v -2 3.9 -2.38419e-007
v -2 3.9 -1.9
v -2 3.9 -2
v -2 4 2
v -2 4 0.0999999
v -2 4 -2.38419e-007
v -2 4 -1.9
v -2 4 -2
v -1.9 0.5 -0.7
v -1.9 0.5 -1.1
v -1.9 0.7 0.5
v -1.9 0.7 -2.38419e-007
v -1.9 0.7 -0.7
v -1.9 0.7 -1.1
v -1.9 1 0.5
v -1.9 1 -2.38419e-007
v -1.9 2 0.4
v -1.9 2 -0.6
v -1.9 2.4 0.4
v -1.9 2.5 0.4
v -1.9 2.7 0.4
v -1.9 2.7 -0.6
v -1.2 0.4 2
v -1.2 0.4 1.9
v -1.2 0.8 2
v -1.2 0.8 1.9
v -1 0 -1.1
v -1 0 -1.8
v -1 0.1 -1.1
v -1 0.1 -1.8
v -1 1.1 -1.9
v -1 1.1 -2
v -1 1.4 -1.9
v -1 1.4 -2
v -1 2.3 2
v -1 2.3 1.9
v -1 2.7 2
v -1 2.7 1.9
v -0.8 0 -0.2
v -0.8 0 -0.5
v -0.8 0.1 -0.2
v -0.8 0.1 -0.5
v -0.8 3.9 2
v -0.8 3.9 1.8
v -0.8 3.9 1.7
v -0.8 3.9 1.2
v -0.8 3.9 1
v -0.8 3.9 0.8
v -0.8 3.9 -0.2
v -0.8 3.9 -2
v -0.8 4 2
v -0.8 4 1.8
v -0.8 4 1.7
v -0.8 4 1.2
v -0.8 4 1
v -0.8 4 0.8
v -0.8 4 -0.2
v -0.8 4 -2
v -0.7 3.9 0.8
v -0.7 3.9 0.7
v -0.7 3.9 0.5
v -0.7 3.9 -2.38419e-007
v -0.7 3.9 -0.2
v -0.7 4 0.8
v -0.7 4 0.7
v -0.7 4 0.5
v -0.7 4 -2.38419e-007
v -0.7 4 -0.2
v -0.5 1.1 2
v -0.5 1.1 1.9
v -0.5 1.4 -1.9
v -0.5 1.4 -2
v -0.5 1.5 2
v -0.5 1.5 1.9
v -0.5 2.3 -1.9
v -0.5 2.3 -2
v -0.3 0 1.2
v -0.3 0 0.8
v -0.3 0 -0.9
v -0.3 0 -1.3
v -0.3 0.1 1.2
v -0.3 0.1 0.8
v -0.3 0.1 -0.9
v -0.3 0.1 -1.3
v 0.2 0 0.5
v 0.2 0 0.0999999
v 0.2 0.1 0.5
v 0.2 0.1 0.0999999
v 0.3 0 1.6
v 0.3 0 1.3
v 0.3 0.1 1.6
v 0.3 0.1 1.3
v 0.3 0.4 2
v 0.3 0.4 1.9
v 0.3 0.6 2
v 0.3 0.6 1.9
v 0.4 0 0.8
v 0.4 0 0.5
v 0.4 0.1 0.8
v 0.4 0.1 0.5
v 0.6 0.9 -1.9
v 0.6 0.9 -2
v 0.6 1.8 -1.9
v 0.6 1.8 -2
v 0.7 3.9 -0.5
v 0.7 3.9 -0.6
v 0.7 4 -0.5
v 0.7 4 -0.6
v 0.8 0 0.5
v 0.8 0 -2.38419e-007
v 0.8 0 -1.1
v 0.8 0 -1.5
v 0.8 0.1 0.5
v 0.8 0.1 -2.38419e-007
v 0.8 0.1 -1.1
v 0.8 0.1 -1.5
v 0.8 3.9 -0.4
v 0.8 3.9 -0.5
v 0.8 3.9 -0.6
v 0.8 3.9 -0.7
v 0.8 4 -0.4
v 0.8 4 -0.5
v 0.8 4 -0.6
v 0.8 4 -0.7
v 0.9 1.6 2
v 0.9 1.6 1.9
v 0.9 2.1 2
v 0.9 2.1 1.9
v 0.9 3.9 0.2
v 0.9 3.9 -0.3
v 0.9 3.9 -0.4
v 0.9 3.9 -0.7
v 0.9 3.9 -0.9
v 0.9 4 0.2
v 0.9 4 -0.3
v 0.9 4 -0.4
v 0.9 4 -0.7
v 0.9 4 -0.9
v 1 3.9 1.1
v 1 3.9 0.7
v 1 3.9 0.4
v 1 3.9 0.2
v 1 3.9 -0.9
v 1 3.9 -1
v 1 4 1.1
v 1 4 0.7
v 1 4 0.4
v 1 4 0.2
v 1 4 -0.9
v 1 4 -1
v 1.1 3.9 2
v 1.1 3.9 1.9
v 1.1 3.9 1.6
v 1.1 3.9 1.1
v 1.1 3.9 -1
v 1.1 3.9 -1.3
v 1.1 3.9 -1.5
v 1.1 3.9 -2
v 1.1 4 2
v 1.1 4 1.9
v 1.1 4 1.6
v 1.1 4 1.1
v 1.1 4 -1
v 1.1 4 -1.3
v 1.1 4 -1.5
v 1.1 4 -2
v 1.3 1.9 -1.9
v 1.3 1.9 -2
v 1.3 2.3 -1.9
v 1.3 2.3 -2
v 1.7 0 0.2
v 1.7 0 -0.4
v 1.7 0.1 0.2
v 1.7 0.1 -0.4
v -1.7 0 -1.1
v -1.7 0 -1.3
v -1.7 0 -1.5
v -1.7 0 -1.8
v -1.7 0.1 -1.1
v -1.7 0.1 -1.3
v -1.7 0.1 -1.5
v -1.7 0.1 -1.8
v -1.6 0.4 2
v -1.6 0.4 1.9
v -1.6 0.8 2
v -1.6 0.8 1.9
v -1.6 3.9 -0.2
v -1.6 3.9 -1
v -1.6 3.9 -1.2
v -1.6 3.9 -1.4
v -1.6 3.9 -1.7
v -1.6 3.9 -2
v -1.6 4 -0.2
v -1.6 4 -1
v -1.6 4 -1.2
v -1.6 4 -1.4
v -1.6 4 -1.7
v -1.6 4 -2
v -1.5 3.9 2
v -1.5 3.9 1.8
v -1.5 3.9 1.4
v -1.5 3.9 1.1
v -1.5 3.9 1
v -1.5 3.9 0.8
v -1.5 4 2
v -1.5 4 1.8
v -1.5 4 1.4
v -1.5 4 1.1
v -1.5 4 1
v -1.5 4 0.8
v -1.4 3.9 0.8
v -1.4 3.9 0.5
v -1.4 3.9 -0.2
v -1.4 4 0.8
v -1.4 4 0.5
v -1.4 4 -0.2
v -1.3 1.1 -1.9
v -1.3 1.1 -2
v -1.3 1.8 -1.9
v -1.3 1.8 -2
v -1.3 2.3 2
v -1.3 2.3 1.9
v -1.3 2.7 2
v -1.3 2.7 1.9
v -1.2 1.8 -1.9
v -1.2 1.8 -2
v -1.2 2.3 -1.9
v -1.2 2.3 -2
v -1.1 0 -0.2
v -1.1 0 -0.5
v -1.1 0.1 -0.2
v -1.1 0.1 -0.5
v -0.8 1.1 2
v -0.8 1.1 1.9
v -0.8 1.3 2
v -0.8 1.3 1.9
v -0.8 1.5 2
v -0.8 1.5 1.9
v -0.7 0 1.2
v -0.7 0 0.6
v -0.7 0.1 1.2
v -0.7 0.1 0.6
v -0.6 0 -0.9
v -0.6 0 -1.3
v -0.6 0.1 -0.9
v -0.6 0.1 -1.3
v -0.5 0 0.6
v -0.5 0 0.5
v -0.5 0.1 0.6
v -0.5 0.1 0.5
v -0.4 0 0.5
v -0.4 0 0.0999999
v -0.4 0.1 0.5
v -0.4 0.1 0.0999999
v -0.4 0.9 -1.9
v -0.4 0.9 -2
v -0.4 1.2 -1.9
v -0.4 1.2 -2
v -0.4 1.8 -1.9
v -0.4 1.8 -2
v -0.0999999 0 1.6
v -0.0999999 0 1.3
v -0.0999999 0.1 1.6
v -0.0999999 0.1 1.3
v 0.1 0.4 2
v 0.1 0.4 1.9
v 0.1 0.6 2
v 0.1 0.6 1.9
v 0.2 1.6 2
v 0.2 1.6 1.9
v 0.2 2.1 2
v 0.2 2.1 1.9
v 0.3 3.9 0.2
v 0.3 3.9 -0.2
v 0.3 3.9 -0.6
v 0.3 3.9 -1
v 0.3 3.9 -1.1
v 0.3 3.9 -1.4
v 0.3 4 0.2
v 0.3 4 -0.2
v 0.3 4 -0.6
v 0.3 4 -1
v 0.3 4 -1.1
v 0.3 4 -1.4
v 0.4 3.9 0.9
v 0.4 3.9 0.3
v 0.4 3.9 0.2
v 0.4 3.9 -1.4
v 0.4 3.9 -1.5
v 0.4 4 0.9
v 0.4 4 0.3
v 0.4 4 0.2
v 0.4 4 -1.4
v 0.4 4 -1.5
v 0.5 0 0.5
v 0.5 0 -2.38419e-007
v 0.5 0 -1.1
v 0.5 0 -1.5
v 0.5 0.1 0.5
v 0.5 0.1 -2.38419e-007
v 0.5 0.1 -1.1
v 0.5 0.1 -1.5
v 0.5 3.9 1.4
v 0.5 3.9 0.9
v 0.5 3.9 -1.5
v 0.5 3.9 -1.6
v 0.5 3.9 -1.7
v 0.5 4 1.4
v 0.5 4 0.9
v 0.5 4 -1.5
v 0.5 4 -1.6
v 0.5 4 -1.7
v 0.6 3.9 1.6
v 0.6 3.9 1.4
v 0.6 3.9 -1.7
v 0.6 3.9 -1.9
v 0.6 4 1.6
v 0.6 4 1.4
v 0.6 4 -1.7
v 0.6 4 -1.9
v 0.7 3.9 2
v 0.7 3.9 1.6
v 0.7 3.9 -1.9
v 0.7 3.9 -2
v 0.7 4 2
v 0.7 4 1.6
v 0.7 4 -1.9
v 0.7 4 -2
v 0.9 1.9 -1.9
v 0.9 1.9 -2
v 0.9 2.3 -1.9
v 0.9 2.3 -2
v 1.5 0 0.2
v 1.5 0 -0.4
v 1.5 0.1 0.2
v 1.5 0.1 -0.4
v 1.9 0.2 0.3
v 1.9 0.2 -0.1
v 1.9 0.5 -1.5
v 1.9 0.5 -1.8
v 1.9 0.6 0.3
v 1.9 0.6 0.0999999
v 1.9 0.6 -0.1
v 1.9 0.9 -0.9
v 1.9 0.9 -1.1
v 1.9 0.9 -1.5
v 1.9 0.9 -1.8
v 1.9 1 1.4
v 1.9 1 0.9
v 1.9 1 -0.9
v 1.9 1.3 1.4
v 1.9 1.3 0.9
v 1.9 1.4 -0.9
v 1.9 1.4 -1.1
v 1.9 2 0.4
v 1.9 2 0.2
v 1.9 2.2 0.4
v 1.9 2.2 0.2
v 1.9 2.4 -0.3
v 1.9 2.4 -0.8
v 1.9 2.8 1.2
v 1.9 2.8 1
v 1.9 2.8 -0.3
v 1.9 2.8 -0.8
v 1.9 3.1 1.2
v 1.9 3.1 1
v 2 0 2
v 2 0 -2
v 2 0.1 -1.1
v 2 0.1 -1.2
v 2 0.2 0.3
v 2 0.2 -0.1
v 2 0.2 -1.1
v 2 0.2 -1.2
v 2 0.4 1.2
v 2 0.4 0.9
v 2 0.5 -1.5
v 2 0.5 -1.8
v 2 0.6 0.3
v 2 0.6 0.0999999
v 2 0.6 -0.1
v 2 0.7 1.2
v 2 0.7 0.9
v 2 0.7 0.3
v 2 0.7 0.0999999
v 2 0.8 -0.8
v 2 0.8 -0.9
v 2 0.9 -0.9
v 2 0.9 -1.1
v 2 0.9 -1.5
v 2 0.9 -1.8
v 2 1 1.4
v 2 1 0.9
v 2 1 -0.8
v 2 1 -0.9
v 2 1.3 1.4
v 2 1.3 0.9
v 2 1.4 1.6
v 2 1.4 1.5
v 2 1.4 -0.9
v 2 1.4 -1.1
v 2 1.5 1.6
v 2 1.5 1.5
v 2 1.7 -1.1
v 2 1.7 -1.5
v 2 1.9 1
v 2 1.9 0.8
v 2 1.9 0.0999999
v 2 1.9 -0.1
v 2 2 1
v 2 2 0.8
v 2 2 0.4
v 2 2 0.2
v 2 2.1 0.0999999
v 2 2.1 -0.1
v 2 2.2 0.4
v 2 2.2 0.2
v 2 2.2 -1.1
v 2 2.2 -1.4
v 2 2.3 0.9
v 2 2.3 0.7
v 2 2.3 -1.4
v 2 2.3 -1.5
v 2 2.4 -0.3
v 2 2.4 -0.8
v 2 2.5 0.9
v 2 2.5 0.7
v 2 2.8 1.2
v 2 2.8 1
v 2 2.8 -0.3
v 2 2.8 -0.8
v 2 2.8 -1.1
v 2 2.8 -1.5
v 2 3 1.9
v 2 3 1.6
v 2 3 0.3
v 2 3 0.2
v 2 3 -1
v 2 3 -1.1
v 2 3 -1.5
v 2 3 -1.6
v 2 3.1 2
v 2 3.1 1.9
v 2 3.1 1.6
v 2 3.1 1.4
v 2 3.1 1.2
v 2 3.1 1
v 2 3.1 -0.9
v 2 3.1 -1
v 2 3.1 -1.6
v 2 3.1 -2
v 2 3.2 0.9
v 2 3.2 0.7
v 2 3.3 0.9
v 2 3.3 0.7
v 2 3.3 0.4
v 2 3.3 0.3
v 2 3.3 0.2
v 2 3.3 0.0999999
v 2 3.3 -0.4
v 2 3.3 -0.5
v 2 3.4 1.4
v 2 3.4 1
v 2 3.4 -0.3
v 2 3.4 -0.4
v 2 3.4 -0.5
v 2 3.4 -0.6
v 2 3.5 -0.6
v 2 3.5 -0.9
v 2 3.6 -2.38419e-007
v 2 3.6 -0.3
v 2 3.7 1
v 2 3.7 0.4
v 2 3.7 0.0999999
v 2 3.7 -2.38419e-007
v 2 4 2
v 2 4 -2
v -2 0 2
v -2 3.1 2
v -2 4 2
v -1.9 2.3 2
v -1.9 2.6 2
v -1.6 0.4 2
v -1.6 0.8 2
v -1.6 2.3 2
v -1.6 2.6 2
v -1.5 1 2
v -1.5 1.2 2
v -1.5 3.9 2
v -1.5 4 2
v -1.3 2.3 2
v -1.3 2.7 2
v -1.2 0.4 2
v -1.2 0.8 2
v -1.2 1 2
v -1.2 1.2 2
v -1.2 3.1 2
v -1.2 3.2 2
v -1 0.3 2
v -1 0.5 2
v -1 1.3 2
v -1 1.5 2
v -1 2.3 2
v -1 2.7 2
v -1 3.2 2
v -1 3.3 2
v -0.8 0.3 2
v -0.8 0.5 2
v -0.8 1.1 2
v -0.8 1.3 2
v -0.8 1.5 2
v -0.8 3.9 2
v -0.8 4 2
v -0.7 3.3 2
v -0.7 3.4 2
v -0.6 3.4 2
v -0.6 3.5 2
v -0.5 0 2
v -0.5 0.1 2
v -0.5 1.1 2
v -0.5 1.5 2
v -0.5 3.5 2
v -0.5 3.6 2
v -0.4 3 2
v -0.4 3.6 2
v -0.3 0 2
v -0.3 0.1 2
v -0.3 1.8 2
v -0.3 1.9 2
v -0.3 2.5 2
v -0.3 3 2
v -0.2 2.4 2
v -0.2 2.5 2
v -0.0999999 1.8 2
v -0.0999999 1.9 2
v -0.0999999 2.4 2
v -0.0999999 3.5 2
v 2.38419e-007 0.8 2
v 2.38419e-007 0.9 2
v 0.1 0.4 2
v 0.1 0.6 2
v 0.1 3.5 2
v 0.1 3.6 2
v 0.2 0.8 2
v 0.2 0.9 2
v 0.2 1.6 2
v 0.2 2.1 2
v 0.2 3.2 2
v 0.2 3.6 2
v 0.3 0.4 2
v 0.3 0.6 2
v 0.3 2.7 2
v 0.3 3.2 2
v 0.4 0.1 2
v 0.4 0.3 2
v 0.4 2.2 2
v 0.4 2.4 2
v 0.4 2.7 2
v 0.4 2.9 2
v 0.5 2.9 2
v 0.5 3.2 2
v 0.6 0.1 2
v 0.6 0.3 2
v 0.6 2.2 2
v 0.6 2.4 2
v 0.6 3.2 2
v 0.6 3.4 2
v 0.7 3.3 2
v 0.7 3.4 2
v 0.7 3.9 2
v 0.7 4 2
v 0.8 0.1 2
v 0.8 0.2 2
v 0.9 1.6 2
v 0.9 2.1 2
v 1 1.1 2
v 1 1.4 2
v 1 3.2 2
v 1 3.3 2
v 1.1 0.1 2
v 1.1 0.2 2
v 1.1 3.9 2
v 1.1 4 2
v 1.2 1.1 2
v 1.2 1.4 2
v 1.2 3.1 2
v 1.2 3.2 2
v 1.3 2.5 2
v 1.3 2.6 2
v 1.5 0.5 2
v 1.5 0.6 2
v 1.5 1.5 2
v 1.5 1.6 2
v 1.6 2.5 2
v 1.6 2.6 2
v 1.7 1.5 2
v 1.7 1.6 2
v 1.7 2.7 2
v 1.7 3.1 2
v 1.8 0.5 2
v 1.8 0.6 2
v 1.9 2.7 2
v 1.9 3.1 2
v 2 0 2
v 2 3.1 2
v 2 4 2
v -1.6 0.4 1.9
v -1.6 0.8 1.9
v -1.3 2.3 1.9
v -1.3 2.7 1.9
v -1.2 0.4 1.9
v -1.2 0.8 1.9
v -1 2.3 1.9
v -1 2.7 1.9
v -0.8 1.1 1.9
v -0.8 1.3 1.9
v -0.8 1.5 1.9
v -0.5 1.1 1.9
v -0.5 1.5 1.9
v 0.1 0.4 1.9
v 0.1 0.6 1.9
v 0.2 1.6 1.9
v 0.2 2.1 1.9
v 0.3 0.4 1.9
v 0.3 0.6 1.9
v 0.9 1.6 1.9
v 0.9 2.1 1.9
v -0.0999999 0 1.3
v -0.0999999 0.1 1.3
v 0.3 0 1.3
v 0.3 0.1 1.3
v 1 3.9 1.1
v 1 4 1.1
v 1.1 3.9 1.1
v 1.1 4 1.1
v 1.9 2.8 1
v 1.9 3.1 1
v 2 2.8 1
v 2 3.1 1
v 1.9 1 0.9
v 1.9 1.3 0.9
v 2 1 0.9
v 2 1.3 0.9
v -1.5 3.9 0.8
v -1.5 4 0.8
v -1.4 3.9 0.8
v -1.4 4 0.8
v -0.7 0 0.6
v -0.7 0.1 0.6
v -0.5 0 0.6
v -0.5 0.1 0.6
v -0.5 0 0.5
v -0.5 0.1 0.5
v -0.4 0 0.5
v -0.4 0.1 0.5
v 0.2 0 0.5
v 0.2 0.1 0.5
v 0.4 0 0.5
v 0.4 0.1 0.5
v 0.9 3.9 0.2
v 0.9 4 0.2
v 1 3.9 0.2
v 1 4 0.2
v 1.9 2 0.2
v 1.9 2.2 0.2
v 2 2 0.2
v 2 2.2 0.2
v -0.4 0 0.0999999
v -0.4 0.1 0.0999999
v 0.2 0 0.0999999
v 0.2 0.1 0.0999999
v -2 0.7 -2.38419e-007
v -2 1 -2.38419e-007
v -1.9 0.7 -2.38419e-007
v -1.9 1 -2.38419e-007
v 0.5 0 -2.38419e-007
v 0.5 0.1 -2.38419e-007
v 0.8 0 -2.38419e-007
v 0.8 0.1 -2.38419e-007
v 1.9 0.2 -0.1
v 1.9 0.6 -0.1
v 2 0.2 -0.1
v 2 0.6 -0.1
v -0.8 3.9 -0.2
v -0.8 4 -0.2
v -0.7 3.9 -0.2
v -0.7 4 -0.2
v 0.8 3.9 -0.4
v 0.8 4 -0.4
v 0.9 3.9 -0.4
v 0.9 4 -0.4
v 1.5 0 -0.4
v 1.5 0.1 -0.4
v 1.7 0 -0.4
v 1.7 0.1 -0.4
v -1.1 0 -0.5
v -1.1 0.1 -0.5
v -0.8 0 -0.5
v -0.8 0.1 -0.5
v 0.7 3.9 -0.5
v 0.7 4 -0.5
v 0.8 3.9 -0.5
v 0.8 4 -0.5
v -2 2 -0.6
v -2 2.7 -0.6
v -1.9 2 -0.6
v -1.9 2.7 -0.6
v 1.9 2.4 -0.8
v 1.9 2.8 -0.8
v 2 2.4 -0.8
v 2 2.8 -0.8
v -2 0.5 -1.1
v -2 0.7 -1.1
v -1.9 0.5 -1.1
v -1.9 0.7 -1.1
v 1.9 0.9 -1.1
v 1.9 1.4 -1.1
v 2 0.9 -1.1
v 2 1.4 -1.1
v -0.6 0 -1.3
v -0.6 0.1 -1.3
v -0.3 0 -1.3
v -0.3 0.1 -1.3
v 0.3 3.9 -1.4
v 0.3 4 -1.4
v 0.4 3.9 -1.4
v 0.4 4 -1.4
v 0.4 3.9 -1.5
v 0.4 4 -1.5
v 0.5 0 -1.5
v 0.5 0.1 -1.5
v 0.5 3.9 -1.5
v 0.5 4 -1.5
v 0.8 0 -1.5
v 0.8 0.1 -1.5
v 0.5 3.9 -1.7
v 0.5 4 -1.7
v 0.6 3.9 -1.7
v 0.6 4 -1.7
v -1.7 0 -1.8
v -1.7 0.1 -1.8
v -1 0 -1.8
v -1 0.1 -1.8
v 1.9 0.5 -1.8
v 1.9 0.9 -1.8
v 2 0.5 -1.8
v 2 0.9 -1.8
v 0.6 3.9 -1.9
v 0.6 4 -1.9
v 0.7 3.9 -1.9
v 0.7 4 -1.9
v -0.0999999 0 1.6
v -0.0999999 0.1 1.6
v 0.3 0 1.6
v 0.3 0.1 1.6
v 0.6 3.9 1.6
v 0.6 4 1.6
v 0.7 3.9 1.6
v 0.7 4 1.6
v 0.5 3.9 1.4
v 0.5 4 1.4
v 0.6 3.9 1.4
v 0.6 4 1.4
v 1.9 1 1.4
v 1.9 1.3 1.4
v 2 1 1.4
v 2 1.3 1.4
v -0.7 0 1.2
v -0.7 0.1 1.2
v -0.3 0 1.2
v -0.3 0.1 1.2
v 1.9 2.8 1.2
v 1.9 3.1 1.2
v 2 2.8 1.2
v 2 3.1 1.2
v 0.4 3.9 0.9
v 0.4 4 0.9
v 0.5 3.9 0.9
v 0.5 4 0.9
v -0.8 3.9 0.8
v -0.8 4 0.8
v -0.7 3.9 0.8
v -0.7 4 0.8
v -0.3 0 0.8
v -0.3 0.1 0.8
v 0.4 0 0.8
v 0.4 0.1 0.8
v -2 0.7 0.5
v -2 1 0.5
v -1.9 0.7 0.5
v -1.9 1 0.5
v 0.5 0 0.5
v 0.5 0.1 0.5
v 0.8 0 0.5
v 0.8 0.1 0.5
v -2 2 0.4
v -2 2.4 0.4
v -2 2.5 0.4
v -2 2.7 0.4
v -1.9 2 0.4
v -1.9 2.4 0.4
v -1.9 2.5 0.4
v -1.9 2.7 0.4
v 1.9 2 0.4
v 1.9 2.2 0.4
v 2 2 0.4
v 2 2.2 0.4
v 1.9 0.2 0.3
v 1.9 0.6 0.3
v 2 0.2 0.3
v 2 0.6 0.3
v 0.3 3.9 0.2
v 0.3 4 0.2
v 0.4 3.9 0.2
v 0.4 4 0.2
v 1.5 0 0.2
v 1.5 0.1 0.2
v 1.7 0 0.2
v 1.7 0.1 0.2
v -1.6 3.9 -0.2
v -1.6 4 -0.2
v -1.4 3.9 -0.2
v -1.4 4 -0.2
v -1.1 0 -0.2
v -1.1 0.1 -0.2
v -0.8 0 -0.2
v -0.8 0.1 -0.2
v 1.9 2.4 -0.3
v 1.9 2.8 -0.3
v 2 2.4 -0.3
v 2 2.8 -0.3
v 0.7 3.9 -0.6
v 0.7 4 -0.6
v 0.8 3.9 -0.6
v 0.8 4 -0.6
v -2 0.5 -0.7
v -2 0.7 -0.7
v -1.9 0.5 -0.7
v -1.9 0.7 -0.7
v 0.8 3.9 -0.7
v 0.8 4 -0.7
v 0.9 3.9 -0.7
v 0.9 4 -0.7
v -0.6 0 -0.9
v -0.6 0.1 -0.9
v -0.3 0 -0.9
v -0.3 0.1 -0.9
v 0.9 3.9 -0.9
v 0.9 4 -0.9
v 1 3.9 -0.9
v 1 4 -0.9
v 1.9 0.9 -0.9
v 1.9 1 -0.9
v 1.9 1.4 -0.9
v 2 0.9 -0.9
v 2 1 -0.9
v 2 1.4 -0.9
v 1 3.9 -1
v 1 4 -1
v 1.1 3.9 -1
v 1.1 4 -1
v -1.7 0 -1.1
v -1.7 0.1 -1.1
v -1.3 0 -1.1
v -1.3 0.1 -1.1
v -1 0 -1.1
v -1 0.1 -1.1
v 0.5 0 -1.1
v 0.5 0.1 -1.1
v 0.8 0 -1.1
v 0.8 0.1 -1.1
v 1.9 0.5 -1.5
v 1.9 0.9 -1.5
v 2 0.5 -1.5
v 2 0.9 -1.5
v -1.3 1.1 -1.9
v -1.3 1.8 -1.9
v -1.2 1.8 -1.9
v -1.2 2.3 -1.9
v -1 1.1 -1.9
v -1 1.4 -1.9
v -0.5 1.4 -1.9
v -0.5 2.3 -1.9
v -0.4 0.9 -1.9
v -0.4 1.2 -1.9
v -0.4 1.8 -1.9
v -0.3 1.8 -1.9
v -0.2 1.8 -1.9
v 0.6 0.9 -1.9
v 0.6 1.8 -1.9
v 0.9 1.9 -1.9
v 0.9 2.3 -1.9
v 1.3 1.9 -1.9
v 1.3 2.3 -1.9
v -2 0 -2
v -2 3.1 -2
v -2 3.2 -2
v -2 3.5 -2
v -2 3.9 -2
v -2 4 -2
v -1.9 3.2 -2
v -1.9 3.5 -2
v -1.8 3.9 -2
v -1.8 4 -2
v -1.6 2 -2
v -1.6 2.2 -2
v -1.6 3.9 -2
v -1.6 4 -2
v -1.5 2 -2
v -1.5 2.2 -2
v -1.4 0.9 -2
v -1.4 1.1 -2
v -1.4 3.7 -2
v -1.4 3.9 -2
v -1.3 0.9 -2
v -1.3 1.1 -2
v -1.3 1.8 -2
v -1.2 1.8 -2
v -1.2 2.3 -2
v -1.2 3.1 -2
v -1.2 3.2 -2
v -1 1.1 -2
v -1 1.4 -2
v -1 3.2 -2
v -1 3.3 -2
v -1 3.7 -2
v -1 3.9 -2
v -0.8 3.9 -2
v -0.8 4 -2
v -0.7 3.3 -2
v -0.7 3.4 -2
v -0.6 0.8 -2
v -0.6 1.2 -2
v -0.6 3.4 -2
v -0.6 3.5 -2
v -0.5 1.4 -2
v -0.5 2.3 -2
v -0.5 3.2 -2
v -0.5 3.5 -2
v -0.4 0.8 -2
v -0.4 0.9 -2
v -0.4 1.2 -2
v -0.4 1.8 -2
v -0.4 2.5 -2
v -0.4 3.2 -2
v -0.3 1.8 -2
v -0.3 1.9 -2
v -0.3 2.5 -2
v -0.3 2.7 -2
v -0.2 0.1 -2
v -0.2 0.3 -2
v -0.2 1.8 -2
v -0.2 1.9 -2
v -0.2 2.7 -2
v -0.2 3.2 -2
v -0.0999999 0.1 -2
v -0.0999999 0.3 -2
v -0.0999999 3.2 -2
v -0.0999999 3.5 -2
v 0.1 3.5 -2
v 0.1 3.6 -2
v 0.2 3.6 -2
v 0.2 3.7 -2
v 0.3 0.5 -2
v 0.3 0.8 -2
v 0.3 2.5 -2
v 0.3 2.7 -2
v 0.3 3.6 -2
v 0.3 3.7 -2
v 0.4 0.5 -2
v 0.4 0.8 -2
v 0.4 3.8 -2
v 0.4 4 -2
v 0.5 3.5 -2
v 0.5 3.6 -2
v 0.6 0.9 -2
v 0.6 1.8 -2
v 0.6 3.4 -2
v 0.6 3.5 -2
v 0.7 2.5 -2
v 0.7 2.7 -2
v 0.7 3.3 -2
v 0.7 3.4 -2
v 0.7 3.9 -2
v 0.7 4 -2
v 0.9 1.6 -2
v 0.9 1.8 -2
v 0.9 1.9 -2
v 0.9 2.3 -2
v 0.9 3.8 -2
v 0.9 3.9 -2
v 1 3.2 -2
v 1 3.3 -2
v 1.1 1.6 -2
v 1.1 1.8 -2
v 1.1 3.9 -2
v 1.1 4 -2
v 1.2 3.1 -2
v 1.2 3.2 -2
v 1.3 1.9 -2
v 1.3 2.3 -2
v 1.5 3.7 -2
v 1.5 3.9 -2
v 1.6 0.6 -2
v 1.6 0.7 -2
v 1.6 2.7 -2
v 1.6 2.8 -2
v 1.7 2.7 -2
v 1.7 2.8 -2
v 1.7 3.7 -2
v 1.7 3.9 -2
v 1.8 0.6 -2
v 1.8 0.7 -2
v 2 0 -2
v 2 3.1 -2
v 2 4 -2
v -2 0 2
v -0.5 0 2
v -0.3 0 2
v 2 0 2
v -0.5 0 1.9
v -0.3 0 1.9
v 1.6 0 1.7
v 1.7 0 1.7
v -0.0999999 0 1.6
v 0.3 0 1.6
v 1.6 0 1.5
v 1.7 0 1.5
v 0.7 0 1.4
v 1.1 0 1.4
v -0.0999999 0 1.3
v 0.3 0 1.3
v -1.2 0 1.2
v -1.1 0 1.2
v -0.7 0 1.2
v -0.3 0 1.2
v 0.7 0 1.1
v 1.1 0 1.1
v -1.2 0 1
v -1.1 0 1
v -0.3 0 0.8
v 0.4 0 0.8
v -1.5 0 0.6
v -1.3 0 0.6
v -0.7 0 0.6
v -0.5 0 0.6
v -0.5 0 0.5
v -0.4 0 0.5
v 0.2 0 0.5
v 0.4 0 0.5
v 0.5 0 0.5
v 0.8 0 0.5
v -0.7 0 0.4
v -0.5 0 0.4
v -1.5 0 0.2
v -1.3 0 0.2
v -0.7 0 0.2
v -0.5 0 0.2
v 1.5 0 0.2
v 1.7 0 0.2
v -0.4 0 0.0999999
v 0.2 0 0.0999999
v 0.5 0 -2.38419e-007
v 0.8 0 -2.38419e-007
v 0.5 0 -0.1
v 0.9 0 -0.1
v -1.1 0 -0.2
v -0.8 0 -0.2
v -1.8 0 -0.4
v -1.6 0 -0.4
v -0.6 0 -0.4
v -0.4 0 -0.4
v 1.5 0 -0.4
v 1.7 0 -0.4
v -1.1 0 -0.5
v -0.8 0 -0.5
v -0.6 0 -0.5
v -0.4 0 -0.5
v -1.8 0 -0.6
v -1.6 0 -0.6
v 0.5 0 -0.8
v 0.9 0 -0.8
v 1.8 0 -0.8
v 1.9 0 -0.8
v -0.6 0 -0.9
v -0.3 0 -0.9
v 1.8 0 -0.9
v 1.9 0 -0.9
v -1.3 0 -1
v -1 0 -1
v -1.7 0 -1.1
v -1.3 0 -1.1
v -1 0 -1.1
v 0.5 0 -1.1
v 0.8 0 -1.1
v -1.8 0 -1.3
v -1.7 0 -1.3
v -0.6 0 -1.3
v -0.3 0 -1.3
v 1.2 0 -1.3
v 1.5 0 -1.3
v -0.2 0 -1.4
v 2.38419e-007 0 -1.4
v -1.8 0 -1.5
v -1.7 0 -1.5
v 0.5 0 -1.5
v 0.8 0 -1.5
v -0.2 0 -1.6
v 2.38419e-007 0 -1.6
v 1.2 0 -1.6
v 1.5 0 -1.6
v -1.7 0 -1.8
v -1 0 -1.8
v -2 0 -2
v 2 0 -2
v -0.0999999 0.1 1.6
v 0.3 0.1 1.6
v -0.0999999 0.1 1.3
v 0.3 0.1 1.3
v -0.7 0.1 1.2
v -0.3 0.1 1.2
v -0.3 0.1 0.8
v 0.4 0.1 0.8
v -0.7 0.1 0.6
v -0.5 0.1 0.6
v -0.5 0.1 0.5
v -0.4 0.1 0.5
v 0.2 0.1 0.5
v 0.4 0.1 0.5
v 0.5 0.1 0.5
v 0.8 0.1 0.5
v 1.5 0.1 0.2
v 1.7 0.1 0.2
v -0.4 0.1 0.0999999
v 0.2 0.1 0.0999999
v 0.5 0.1 -2.38419e-007
v 0.8 0.1 -2.38419e-007
v -1.1 0.1 -0.2
v -0.8 0.1 -0.2
v 1.5 0.1 -0.4
v 1.7 0.1 -0.4
v -1.1 0.1 -0.5
v -0.8 0.1 -0.5
v -0.6 0.1 -0.9
v -0.3 0.1 -0.9
v -1.7 0.1 -1.1
v -1.3 0.1 -1.1
v -1 0.1 -1.1
v 0.5 0.1 -1.1
v 0.8 0.1 -1.1
v -1.7 0.1 -1.3
v -0.6 0.1 -1.3
v -0.3 0.1 -1.3
v -1.7 0.1 -1.5
v 0.5 0.1 -1.5
v 0.8 0.1 -1.5
v -1.7 0.1 -1.8
v -1 0.1 -1.8
v 0.1 0.6 2
v 0.3 0.6 2
v 0.1 0.6 1.9
v 0.3 0.6 1.9
v 1.9 0.6 0.3
v 2 0.6 0.3
v 1.9 0.6 0.0999999
v 2 0.6 0.0999999
v 1.9 0.6 -0.1
v 2 0.6 -0.1
v -2 0.7 -0.7
v -1.9 0.7 -0.7
v -2 0.7 -1.1
v -1.9 0.7 -1.1
v -1.6 0.8 2
v -1.2 0.8 2
v -1.6 0.8 1.9
v -1.2 0.8 1.9
v 1.9 0.9 -1.5
v 2 0.9 -1.5
v 1.9 0.9 -1.8
v 2 0.9 -1.8
v -2 1 0.5
v -1.9 1 0.5
v -2 1 -2.38419e-007
v -1.9 1 -2.38419e-007
v 1.9 1.3 1.4
v 2 1.3 1.4
v 1.9 1.3 0.9
v 2 1.3 0.9
v 1.9 1.4 -0.9
v 2 1.4 -0.9
v 1.9 1.4 -1.1
v 2 1.4 -1.1
v -0.8 1.5 2
v -0.5 1.5 2
v -0.8 1.5 1.9
v -0.5 1.5 1.9
v -1.3 1.8 -1.9
v -1.2 1.8 -1.9
v -0.4 1.8 -1.9
v -0.3 1.8 -1.9
v -0.2 1.8 -1.9
v 0.6 1.8 -1.9
v -1.3 1.8 -2
v -1.2 1.8 -2
v -0.4 1.8 -2
v -0.3 1.8 -2
v -0.2 1.8 -2
v 0.6 1.8 -2
v 0.2 2.1 2
v 0.9 2.1 2
v 0.2 2.1 1.9
v 0.9 2.1 1.9
v 1.9 2.2 0.4
v 2 2.2 0.4
v 1.9 2.2 0.2
v 2 2.2 0.2
v -1.2 2.3 -1.9
v -0.5 2.3 -1.9
v 0.9 2.3 -1.9
v 1.3 2.3 -1.9
v -1.2 2.3 -2
v -0.5 2.3 -2
v 0.9 2.3 -2
v 1.3 2.3 -2
v -1.3 2.7 2
v -1 2.7 2
v -1.3 2.7 1.9
v -1 2.7 1.9
v -2 2.7 0.4
v -1.9 2.7 0.4
v -2 2.7 -0.6
v -1.9 2.7 -0.6
v 1.9 2.8 -0.3
v 2 2.8 -0.3
v 1.9 2.8 -0.8
v 2 2.8 -0.8
v 1.9 3.1 1.2
v 2 3.1 1.2
v 1.9 3.1 1
v 2 3.1 1
v 1.9 0.2 0.3
v 2 0.2 0.3
v 1.9 0.2 -0.1
v 2 0.2 -0.1
v -1.6 0.4 2
v -1.2 0.4 2
v 0.1 0.4 2
v 0.3 0.4 2
v -1.6 0.4 1.9
v -1.2 0.4 1.9
v 0.1 0.4 1.9
v 0.3 0.4 1.9
v -2 0.5 -0.7
v -1.9 0.5 -0.7
v -2 0.5 -1.1
v -1.9 0.5 -1.1
v 1.9 0.5 -1.5
v 2 0.5 -1.5
v 1.9 0.5 -1.8
v 2 0.5 -1.8
v -2 0.7 0.5
v -1.9 0.7 0.5
v -2 0.7 -2.38419e-007
v -1.9 0.7 -2.38419e-007
v 1.9 0.9 -0.9
v 2 0.9 -0.9
v 1.9 0.9 -1.1
v 2 0.9 -1.1
v -0.4 0.9 -1.9
v 0.6 0.9 -1.9
v -0.4 0.9 -2
v 0.6 0.9 -2
v 1.9 1 1.4
v 2 1 1.4
v 1.9 1 0.9
v 2 1 0.9
v -0.8 1.1 2
v -0.5 1.1 2
v -0.8 1.1 1.9
v -0.5 1.1 1.9
v -1.3 1.1 -1.9
v -1 1.1 -1.9
v -1.3 1.1 -2
v -1 1.1 -2
v -1 1.4 -1.9
v -0.5 1.4 -1.9
v -1 1.4 -2
v -0.5 1.4 -2
v 0.2 1.6 2
v 0.9 1.6 2
v 0.2 1.6 1.9
v 0.9 1.6 1.9
v 0.9 1.9 -1.9
v 1.3 1.9 -1.9
v 0.9 1.9 -2
v 1.3 1.9 -2
v -2 2 0.4
v -1.9 2 0.4
v 1.9 2 0.4
v 2 2 0.4
v 1.9 2 0.2
v 2 2 0.2
v -2 2 -0.6
v -1.9 2 -0.6
v -1.3 2.3 2
v -1 2.3 2
v -1.3 2.3 1.9
v -1 2.3 1.9
v 1.9 2.4 -0.3
v 2 2.4 -0.3
v 1.9 2.4 -0.8
v 2 2.4 -0.8
v 1.9 2.8 1.2
v 2 2.8 1.2
v 1.9 2.8 1
v 2 2.8 1
v -1.5 3.9 2
v -0.8 3.9 2
v 0.7 3.9 2
v 1.1 3.9 2
v 0.9 3.9 1.9
v 1.1 3.9 1.9
v -1.5 3.9 1.8
v -1.3 3.9 1.8
v -1 3.9 1.8
v -0.8 3.9 1.8
v -1 3.9 1.7
v -0.8 3.9 1.7
v 0.6 3.9 1.6
v 0.7 3.9 1.6
v 0.9 3.9 1.6
v 1.1 3.9 1.6
v -1.5 3.9 1.4
v -1.3 3.9 1.4
v 0.5 3.9 1.4
v 0.6 3.9 1.4
v -1.2 3.9 1.2
v -0.8 3.9 1.2
v -1.5 3.9 1.1
v 1 3.9 1.1
v 1.1 3.9 1.1
v -1.5 3.9 1
v -0.9 3.9 1
v -0.8 3.9 1
v -1.2 3.9 0.9
v -0.9 3.9 0.9
v 0.4 3.9 0.9
v 0.5 3.9 0.9
v -1.5 3.9 0.8
v -1.4 3.9 0.8
v -0.8 3.9 0.8
v -0.7 3.9 0.8
v -0.7 3.9 0.7
v 0.5 3.9 0.7
v 1 3.9 0.7
v -1.4 3.9 0.5
v -1.1 3.9 0.5
v -0.7 3.9 0.5
v 0.5 3.9 0.4
v 1 3.9 0.4
v 0.4 3.9 0.3
v 0.7 3.9 0.3
v 0.3 3.9 0.2
v 0.4 3.9 0.2
v 0.9 3.9 0.2
v 1 3.9 0.2
v -1.2 3.9 0.0999999
v -1.1 3.9 0.0999999
v -0.9 3.9 -2.38419e-007
v -0.7 3.9 -2.38419e-007
v -1.6 3.9 -0.2
v -1.4 3.9 -0.2
v -1.2 3.9 -0.2
v -0.9 3.9 -0.2
v -0.8 3.9 -0.2
v -0.7 3.9 -0.2
v 0.3 3.9 -0.2
v 0.7 3.9 -0.2
v 0.9 3.9 -0.3
v 0.8 3.9 -0.4
v 0.9 3.9 -0.4
v -1.5 3.9 -0.5
v -1.1 3.9 -0.5
v 0.7 3.9 -0.5
v 0.8 3.9 -0.5
v 0.3 3.9 -0.6
v 0.7 3.9 -0.6
v 0.8 3.9 -0.6
v 0.8 3.9 -0.7
v 0.9 3.9 -0.7
v -1.5 3.9 -0.8
v -1.1 3.9 -0.8
v 0.9 3.9 -0.9
v 1 3.9 -0.9
v -1.6 3.9 -1
v 0.3 3.9 -1
v 0.7 3.9 -1
v 1 3.9 -1
v 1.1 3.9 -1
v 0.3 3.9 -1.1
v 0.7 3.9 -1.1
v -1.6 3.9 -1.2
v 1.1 3.9 -1.3
v -1.6 3.9 -1.4
v -1.4 3.9 -1.4
v 0.3 3.9 -1.4
v 0.4 3.9 -1.4
v 0.4 3.9 -1.5
v 0.5 3.9 -1.5
v 0.7 3.9 -1.5
v 1.1 3.9 -1.5
v 0.5 3.9 -1.6
v 0.9 3.9 -1.6
v -1.6 3.9 -1.7
v -1.4 3.9 -1.7
v 0.5 3.9 -1.7
v 0.6 3.9 -1.7
v -1.4 3.9 -1.8
v -1 3.9 -1.8
v 0.6 3.9 -1.9
v 0.7 3.9 -1.9
v -1.6 3.9 -2
v -1.4 3.9 -2
v -1 3.9 -2
v -0.8 3.9 -2
v 0.7 3.9 -2
v 0.9 3.9 -2
v 1.1 3.9 -2
v -2 4 2
v -1.5 4 2
v -0.8 4 2
v 0.7 4 2
v 1.1 4 2
v 2 4 2
v 1.1 4 1.9
v 1.4 4 1.9
v -1.8 4 1.8
v -1.5 4 1.8
v -0.8 4 1.8
v -0.6 4 1.8
v -0.8 4 1.7
v -0.6 4 1.7
v -0.2 4 1.6
v 0.3 4 1.6
v 0.6 4 1.6
v 0.7 4 1.6
v 1.1 4 1.6
v 1.2 4 1.6
v 1.4 4 1.6
v 1.8 4 1.6
v -1.8 4 1.4
v -1.5 4 1.4
v -0.2 4 1.4
v 0.3 4 1.4
v 0.5 4 1.4
v 0.6 4 1.4
v -0.8 4 1.2
v -0.5 4 1.2
v -1.7 4 1.1
v -1.5 4 1.1
v 1 4 1.1
v 1.1 4 1.1
v 1.2 4 1.1
v 1.8 4 1.1
v -1.7 4 1
v -1.5 4 1
v -0.8 4 1
v -0.5 4 1
v 0.4 4 0.9
v 0.5 4 0.9
v -1.5 4 0.8
v -1.4 4 0.8
v -0.8 4 0.8
v -0.7 4 0.8
v -0.7 4 0.7
v -0.4 4 0.7
v 1 4 0.7
v 1.1 4 0.7
v 0.1 4 0.6
v 0.3 4 0.6
v 1.1 4 0.6
v 1.5 4 0.6
v -1.5 4 0.5
v -1.4 4 0.5
v -0.7 4 0.5
v -0.4 4 0.5
v 0.1 4 0.5
v 0.3 4 0.5
v 1.1 4 0.5
v 1.5 4 0.5
v 1 4 0.4
v 1.1 4 0.4
v 0.2 4 0.3
v 0.4 4 0.3
v 0.3 4 0.2
v 0.4 4 0.2
v 0.9 4 0.2
v 1 4 0.2
v -2 4 0.0999999
v -1.9 4 0.0999999
v -1.6 4 0.0999999
v -1.5 4 0.0999999
v -2 4 -2.38419e-007
v -1.9 4 -2.38419e-007
v -0.7 4 -2.38419e-007
v -0.0999999 4 -2.38419e-007
v -1.6 4 -0.2
v -1.4 4 -0.2
v -0.8 4 -0.2
v -0.7 4 -0.2
v -0.0999999 4 -0.2
v 0.2 4 -0.2
v 0.3 4 -0.2
v 0.9 4 -0.3
v 1.1 4 -0.3
v 0.8 4 -0.4
v 0.9 4 -0.4
v 0.7 4 -0.5
v 0.8 4 -0.5
v 1.1 4 -0.5
v 1.6 4 -0.5
v 2.38419e-007 4 -0.6
v 0.3 4 -0.6
v 0.7 4 -0.6
v 0.8 4 -0.6
v 1.6 4 -0.6
v 0.8 4 -0.7
v 0.9 4 -0.7
v 0.9 4 -0.9
v 1 4 -0.9
v -1.8 4 -1
v -1.6 4 -1
v 2.38419e-007 4 -1
v 0.3 4 -1
v 1 4 -1
v 1.1 4 -1
v -0.2 4 -1.1
v 0.1 4 -1.1
v 0.2 4 -1.1
v 0.3 4 -1.1
v -1.8 4 -1.2
v -1.6 4 -1.2
v -0.2 4 -1.2
v 0.1 4 -1.2
v 1.1 4 -1.3
v 1.9 4 -1.3
v -1.7 4 -1.4
v -1.6 4 -1.4
v 0.3 4 -1.4
v 0.4 4 -1.4
v 0.2 4 -1.5
v 0.4 4 -1.5
v 0.5 4 -1.5
v 1.1 4 -1.5
v 1.9 4 -1.5
v 0.4 4 -1.6
v 0.5 4 -1.6
v -1.7 4 -1.7
v -1.6 4 -1.7
v -0.5 4 -1.7
v -0.2 4 -1.7
v 0.5 4 -1.7
v 0.6 4 -1.7
v -2 4 -1.9
v -1.8 4 -1.9
v -0.5 4 -1.9
v -0.2 4 -1.9
v 0.6 4 -1.9
v 0.7 4 -1.9
v -2 4 -2
v -1.8 4 -2
v -1.6 4 -2
v -0.8 4 -2
v 0.4 4 -2
v 0.7 4 -2
v 1.1 4 -2
v 2 4 -2

# faces
f 3/1/1 2/1/1 1/1/1
f 4/1/1 2/1/1 3/1/1
f 5/1/1 3/1/1 1/1/1
f 5/4/1 4/4/1 3/4/1
f 6/1/1 2/1/1 4/1/1
f 6/4/1 4/4/1 5/4/1
f 7/1/1 6/1/1 5/1/1
f 7/1/1 2/1/1 6/1/1
f 8/1/1 2/1/1 7/1/1
f 9/1/1 7/1/1 5/1/1
f 9/4/1 8/4/1 7/4/1
f 10/1/1 2/1/1 8/1/1
f 10/4/1 8/4/1 9/4/1
f 11/1/1 2/1/1 10/1/1
f 12/1/1 2/1/1 11/1/1
f 13/1/1 5/1/1 1/1/1
f 13/1/1 9/1/1 5/1/1
f 13/1/1 10/1/1 9/1/1
f 13/1/1 11/1/1 10/1/1
f 14/1/1 11/1/1 13/1/1
f 15/1/1 11/1/1 14/1/1
f 16/1/1 11/1/1 15/1/1
f 17/1/1 11/1/1 16/1/1
f 18/1/1 13/1/1 1/1/1
f 18/4/1 14/4/1 13/4/1
f 19/1/1 15/1/1 14/1/1
f 19/4/1 14/4/1 18/4/1
f 20/1/1 15/1/1 19/1/1
f 21/1/1 15/1/1 20/1/1
f 22/1/1 19/1/1 18/1/1
f 22/1/1 20/1/1 19/1/1
f 22/4/1 21/4/1 20/4/1
f 23/1/1 15/1/1 21/1/1
f 23/4/1 21/4/1 22/4/1
f 24/1/1 15/1/1 23/1/1
f 25/1/1 15/1/1 24/1/1
f 26/1/1 15/1/1 25/1/1
f 27/4/1 17/4/1 16/4/1
f 28/1/1 26/1/1 25/1/1
f 28/1/1 27/1/1 26/1/1
f 28/4/1 17/4/1 27/4/1
f 29/1/1 11/1/1 17/1/1
f 29/4/1 17/4/1 28/4/1
f 30/4/1 12/4/1 11/4/1
f 30/1/1 11/1/1 29/1/1
f 31/1/1 2/1/1 12/1/1
f 31/4/1 12/4/1 30/4/1
f 32/1/1 23/1/1 22/1/1
f 32/1/1 24/1/1 23/1/1
f 33/1/1 30/1/1 29/1/1
f 33/1/1 29/1/1 28/1/1
f 33/1/1 31/1/1 30/1/1
f 33/1/1 28/1/1 25/1/1
f 34/1/1 31/1/1 33/1/1
f 35/1/1 31/1/1 34/1/1
f 36/1/1 32/1/1 22/1/1
f 36/1/1 22/1/1 18/1/1
f 36/1/1 18/1/1 1/1/1
f 36/1/1 34/1/1 33/1/1
f 36/1/1 33/1/1 32/1/1
f 37/1/1 34/1/1 36/1/1
f 38/1/1 34/1/1 37/1/1
f 39/1/1 34/1/1 38/1/1
f 40/1/1 34/1/1 39/1/1
f 41/1/1 34/1/1 40/1/1
f 42/4/1 35/4/1 34/4/1
f 42/1/1 34/1/1 41/1/1
f 43/1/1 31/1/1 35/1/1
f 43/4/1 35/4/1 42/4/1
f 44/4/1 41/4/1 40/4/1
f 44/1/1 40/1/1 39/1/1
f 45/1/1 42/1/1 41/1/1
f 45/4/1 41/4/1 44/4/1
f 45/1/1 43/1/1 42/1/1
f 46/1/1 36/1/1 1/1/1
f 46/4/1 37/4/1 36/4/1
f 47/1/1 38/1/1 37/1/1
f 47/4/1 37/4/1 46/4/1
f 48/4/1 39/4/1 38/4/1
f 48/1/1 38/1/1 47/1/1
f 49/1/1 44/1/1 39/1/1
f 49/4/1 39/4/1 48/4/1
f 49/1/1 45/1/1 44/1/1
f 50/1/1 31/1/1 43/1/1
f 50/1/1 45/1/1 49/1/1
f 50/1/1 43/1/1 45/1/1
f 51/1/1 31/1/1 50/1/1
f 52/1/1 48/1/1 47/1/1
f 52/1/1 49/1/1 48/1/1
f 52/1/1 47/1/1 46/1/1
f 52/1/1 50/1/1 49/1/1
f 53/1/1 50/1/1 52/1/1
f 54/4/1 51/4/1 50/4/1
f 54/1/1 50/1/1 53/1/1
f 55/1/1 31/1/1 51/1/1
f 55/4/1 51/4/1 54/4/1
f 56/1/1 54/1/1 53/1/1
f 56/1/1 55/1/1 54/1/1
f 57/1/1 55/1/1 56/1/1
f 58/4/1 53/4/1 52/4/1
f 58/1/1 52/1/1 46/1/1
f 59/1/1 56/1/1 53/1/1
f 59/4/1 53/4/1 58/4/1
f 60/1/1 56/1/1 59/1/1
f 61/1/1 56/1/1 60/1/1
f 62/4/1 57/4/1 56/4/1
f 62/1/1 56/1/1 61/1/1
f 63/1/1 55/1/1 57/1/1
f 63/4/1 57/4/1 62/4/1
f 64/1/1 63/1/1 62/1/1
f 65/1/1 31/1/1 55/1/1
f 65/1/1 63/1/1 64/1/1
f 65/1/1 55/1/1 63/1/1
f 66/4/1 60/4/1 59/4/1
f 66/1/1 59/1/1 58/1/1
f 67/1/1 61/1/1 60/1/1
f 67/4/1 60/4/1 66/4/1
f 68/1/1 67/1/1 66/1/1
f 68/1/1 61/1/1 67/1/1
f 69/1/1 61/1/1 68/1/1
f 70/1/1 61/1/1 69/1/1
f 71/1/1 61/1/1 70/1/1
f 72/1/1 70/1/1 69/1/1
f 72/4/1 71/4/1 70/4/1
f 73/4/1 71/4/1 72/4/1
f 74/1/1 64/1/1 62/1/1
f 74/4/1 65/4/1 64/4/1
f 75/1/1 31/1/1 65/1/1
f 75/4/1 65/4/1 74/4/1
f 76/1/1 68/1/1 66/1/1
f 76/4/1 69/4/1 68/4/1
f 77/1/1 73/1/1 72/1/1
f 77/4/1 69/4/1 76/4/1
f 77/1/1 72/1/1 69/1/1
f 78/1/1 77/1/1 76/1/1
f 78/1/1 73/1/1 77/1/1
f 79/1/1 74/1/1 62/1/1
f 79/1/1 75/1/1 74/1/1
f 80/1/1 75/1/1 79/1/1
f 80/1/1 79/1/1 78/1/1
f 81/1/1 31/1/1 75/1/1
f 81/1/1 75/1/1 80/1/1
f 82/1/1 76/1/1 66/1/1
f 82/1/1 78/1/1 76/1/1
f 82/1/1 46/1/1 1/1/1
f 82/1/1 66/1/1 58/1/1
f 82/1/1 80/1/1 78/1/1
f 82/1/1 58/1/1 46/1/1
f 83/1/1 80/1/1 82/1/1
f 84/1/1 80/1/1 83/1/1
f 85/1/1 80/1/1 84/1/1
f 86/1/1 80/1/1 85/1/1
f 87/2/1 81/2/1 80/2/1
f 87/1/1 80/1/1 86/1/1
f 88/1/1 31/1/1 81/1/1
f 88/2/1 81/2/1 87/2/1
f 89/1/1 2/1/1 31/1/1
f 89/1/1 31/1/1 88/1/1
f 90/1/1 82/1/1 1/1/1
f 91/2/1 83/2/1 82/2/1
f 91/1/1 82/1/1 90/1/1
f 92/1/1 84/1/1 83/1/1
f 92/2/1 83/2/1 91/2/1
f 93/1/1 84/1/1 92/1/1
f 94/1/1 86/1/1 85/1/1
f 95/2/1 87/2/1 86/2/1
f 95/1/1 86/1/1 94/1/1
f 95/2/1 88/2/1 87/2/1
f 95/2/1 89/2/1 88/2/1
f 96/1/1 2/1/1 89/1/1
f 96/2/1 89/2/1 95/2/1
f 97/1/1 2/1/1 96/1/1
f 98/2/1 95/2/1 94/2/1
f 98/2/1 96/2/1 95/2/1
f 98/2/1 97/2/1 96/2/1
f 99/2/1 97/2/1 98/2/1
f 100/1/1 84/1/1 93/1/1
f 101/2/1 85/2/1 84/2/1
f 101/1/1 84/1/1 100/1/1
f 102/1/1 94/1/1 85/1/1
f 102/2/1 85/2/1 101/2/1
f 103/1/1 94/1/1 102/1/1
f 104/1/1 94/1/1 103/1/1
f 105/1/1 94/1/1 104/1/1
f 106/2/1 93/2/1 92/2/1
f 106/2/1 91/2/1 90/2/1
f 106/1/1 100/1/1 93/1/1
f 106/2/1 92/2/1 91/2/1
f 107/1/1 100/1/1 106/1/1
f 108/1/1 104/1/1 103/1/1
f 109/2/1 105/2/1 104/2/1
f 109/1/1 104/1/1 108/1/1
f 110/1/1 94/1/1 105/1/1
f 110/2/1 105/2/1 109/2/1
f 111/1/1 94/1/1 110/1/1
f 112/2/1 109/2/1 108/2/1
f 112/1/1 94/1/1 111/1/1
f 112/2/1 111/2/1 110/2/1
f 112/2/1 110/2/1 109/2/1
f 113/2/1 98/2/1 94/2/1
f 113/1/1 94/1/1 112/1/1
f 114/3/1 99/3/1 98/3/1
f 114/2/1 98/2/1 113/2/1
f 115/3/1 99/3/1 114/3/1
f 116/1/1 108/1/1 103/1/1
f 117/2/1 112/2/1 108/2/1
f 117/1/1 108/1/1 116/1/1
f 117/2/1 113/2/1 112/2/1
f 117/2/1 115/2/1 114/2/1
f 117/2/1 114/2/1 113/2/1
f 118/2/1 107/2/1 106/2/1
f 118/1/1 100/1/1 107/1/1
f 119/2/1 101/2/1 100/2/1
f 119/1/1 100/1/1 118/1/1
f 119/2/1 103/2/1 102/2/1
f 119/2/1 102/2/1 101/2/1
f 120/1/1 116/1/1 103/1/1
f 120/2/1 103/2/1 119/2/1
f 121/2/1 117/2/1 116/2/1
f 121/1/1 116/1/1 120/1/1
f 122/2/1 120/2/1 119/2/1
f 122/2/1 119/2/1 118/2/1
f 122/2/1 121/2/1 120/2/1
f 123/2/1 117/2/1 121/2/1
f 123/2/1 121/2/1 122/2/1
f 124/2/1 115/2/1 117/2/1
f 124/2/1 117/2/1 123/2/1
f 125/2/1 115/2/1 124/2/1
f 126/2/1 118/2/1 106/2/1
f 126/2/1 122/2/1 118/2/1
f 126/2/1 106/2/1 90/2/1
f 127/3/1 123/3/1 122/3/1
f 127/2/1 122/2/1 126/2/1
f 128/2/1 124/2/1 123/2/1
f 128/3/1 123/3/1 127/3/1
f 129/3/1 125/3/1 124/3/1
f 129/2/1 124/2/1 128/2/1
f 130/3/1 125/3/1 129/3/1
f 135/1/1 132/1/1 131/1/1
f 136/1/1 132/1/1 135/1/1
f 137/1/1 134/1/1 133/1/1
f 138/1/1 134/1/1 137/1/1
f 141/1/1 140/1/1 139/1/1
f 142/1/1 140/1/1 141/1/1
f 143/1/1 140/1/1 142/1/1
f 144/1/1 140/1/1 143/1/1
f 147/1/1 146/1/1 145/1/1
f 148/1/1 146/1/1 147/1/1
f 151/1/1 150/1/1 149/1/1
f 152/1/1 150/1/1 151/1/1
f 155/1/1 154/1/1 153/1/1
f 156/1/1 154/1/1 155/1/1
f 159/1/1 158/1/1 157/1/1
f 160/1/1 158/1/1 159/1/1
f 163/1/1 162/1/1 161/1/1
f 164/1/1 162/1/1 163/1/1
f 173/2/1 166/2/1 165/2/1
f 174/3/1 167/3/1 166/3/1
f 174/2/1 166/2/1 173/2/1
f 175/2/1 168/2/1 167/2/1
f 175/3/1 167/3/1 174/3/1
f 176/3/1 169/3/1 168/3/1
f 176/2/1 168/2/1 175/2/1
f 177/2/1 170/2/1 169/2/1
f 177/3/1 169/3/1 176/3/1
f 178/2/1 170/2/1 177/2/1
f 179/2/1 172/2/1 171/2/1
f 180/2/1 172/2/1 179/2/1
f 186/2/1 182/2/1 181/2/1
f 187/3/1 183/3/1 182/3/1
f 187/2/1 182/2/1 186/2/1
f 188/2/1 184/2/1 183/2/1
f 188/3/1 183/3/1 187/3/1
f 189/3/1 185/3/1 184/3/1
f 189/2/1 184/2/1 188/2/1
f 190/3/1 185/3/1 189/3/1
f 195/1/1 192/1/1 191/1/1
f 196/1/1 192/1/1 195/1/1
f 197/1/1 194/1/1 193/1/1
f 198/1/1 194/1/1 197/1/1
f 203/1/1 200/1/1 199/1/1
f 204/1/1 200/1/1 203/1/1
f 205/1/1 202/1/1 201/1/1
f 206/1/1 202/1/1 205/1/1
f 209/1/1 208/1/1 207/1/1
f 210/1/1 208/1/1 209/1/1
f 213/1/1 212/1/1 211/1/1
f 214/1/1 212/1/1 213/1/1
f 217/1/1 216/1/1 215/1/1
f 218/1/1 216/1/1 217/1/1
f 221/1/1 220/1/1 219/1/1
f 222/1/1 220/1/1 221/1/1
f 225/1/1 224/1/1 223/1/1
f 226/1/1 224/1/1 225/1/1
f 229/3/1 228/3/1 227/3/1
f 230/3/1 228/3/1 229/3/1
f 235/1/1 232/1/1 231/1/1
f 236/1/1 232/1/1 235/1/1
f 237/1/1 234/1/1 233/1/1
f 238/1/1 234/1/1 237/1/1
f 243/3/1 240/3/1 239/3/1
f 244/3/1 240/3/1 243/3/1
f 245/2/1 242/2/1 241/2/1
f 246/2/1 242/2/1 245/2/1
f 249/1/1 248/1/1 247/1/1
f 250/1/1 248/1/1 249/1/1
f 256/2/1 252/2/1 251/2/1
f 257/3/1 253/3/1 252/3/1
f 257/2/1 252/2/1 256/2/1
f 258/3/1 253/3/1 257/3/1
f 259/2/1 255/2/1 254/2/1
f 260/2/1 255/2/1 259/2/1
f 267/2/1 262/2/1 261/2/1
f 268/3/1 263/3/1 262/3/1
f 268/2/1 262/2/1 267/2/1
f 269/2/1 264/2/1 263/2/1
f 269/3/1 263/3/1 268/3/1
f 270/2/1 264/2/1 269/2/1
f 271/2/1 266/2/1 265/2/1
f 272/2/1 266/2/1 271/2/1
f 281/2/1 274/2/1 273/2/1
f 282/3/1 275/3/1 274/3/1
f 282/2/1 274/2/1 281/2/1
f 283/2/1 276/2/1 275/2/1
f 283/3/1 275/3/1 282/3/1
f 284/2/1 276/2/1 283/2/1
f 285/2/1 278/2/1 277/2/1
f 286/3/1 279/3/1 278/3/1
f 286/2/1 278/2/1 285/2/1
f 287/2/1 280/2/1 279/2/1
f 287/3/1 279/3/1 286/3/1
f 288/2/1 280/2/1 287/2/1
f 291/1/1 290/1/1 289/1/1
f 292/1/1 290/1/1 291/1/1
f 295/1/1 294/1/1 293/1/1
f 296/1/1 294/1/1 295/1/1
f 297/1/2 298/1/2 301/1/2
f 298/4/2 299/4/2 302/4/2
f 301/1/2 298/1/2 302/1/2
f 299/1/2 300/1/2 303/1/2
f 302/4/2 299/4/2 303/4/2
f 303/1/2 300/1/2 304/1/2
f 305/1/2 306/1/2 307/1/2
f 307/1/2 306/1/2 308/1/2
f 309/2/2 310/2/2 315/2/2
f 310/3/2 311/3/2 316/3/2
f 315/2/2 310/2/2 316/2/2
f 311/2/2 312/2/2 317/2/2
f 316/3/2 311/3/2 317/3/2
f 312/3/2 313/3/2 318/3/2
f 317/2/2 312/2/2 318/2/2
f 313/2/2 314/2/2 319/2/2
f 318/3/2 313/3/2 319/3/2
f 319/2/2 314/2/2 320/2/2
f 321/2/2 322/2/2 327/2/2
f 322/3/2 323/3/2 328/3/2
f 327/2/2 322/2/2 328/2/2
f 323/2/2 324/2/2 329/2/2
f 328/3/2 323/3/2 329/3/2
f 324/3/2 325/3/2 330/3/2
f 329/2/2 324/2/2 330/2/2
f 325/2/2 326/2/2 331/2/2
f 330/3/2 325/3/2 331/3/2
f 331/2/2 326/2/2 332/2/2
f 333/2/2 334/2/2 336/2/2
f 334/3/2 335/3/2 337/3/2
f 336/2/2 334/2/2 337/2/2
f 337/3/2 335/3/2 338/3/2
f 339/1/2 340/1/2 341/1/2
f 341/1/2 340/1/2 342/1/2
f 343/1/2 344/1/2 345/1/2
f 345/1/2 344/1/2 346/1/2
f 347/1/2 348/1/2 349/1/2
f 349/1/2 348/1/2 350/1/2
f 351/1/2 352/1/2 353/1/2
f 353/1/2 352/1/2 354/1/2
f 355/1/2 356/1/2 357/1/2
f 357/1/2 356/1/2 358/1/2
f 357/4/2 358/4/2 359/4/2
f 359/4/2 358/4/2 360/4/2
f 361/1/2 362/1/2 363/1/2
f 363/1/2 362/1/2 364/1/2
f 365/1/2 366/1/2 367/1/2
f 367/1/2 366/1/2 368/1/2
f 369/1/2 370/1/2 371/1/2
f 371/1/2 370/1/2 372/1/2
f 373/1/2 374/1/2 375/1/2
f 375/1/2 374/1/2 376/1/2
f 377/4/2 378/4/2 379/4/2
f 379/4/2 378/4/2 380/4/2
f 379/1/2 380/1/2 381/1/2
f 381/1/2 380/1/2 382/1/2
f 383/1/2 384/1/2 385/1/2
f 385/1/2 384/1/2 386/1/2
f 387/1/2 388/1/2 389/1/2
f 389/1/2 388/1/2 390/1/2
f 391/1/2 392/1/2 393/1/2
f 393/1/2 392/1/2 394/1/2
f 395/3/2 396/3/2 401/3/2
f 396/2/2 397/2/2 402/2/2
f 401/3/2 396/3/2 402/3/2
f 397/3/2 398/3/2 403/3/2
f 402/2/2 397/2/2 403/2/2
f 398/2/2 399/2/2 404/2/2
f 403/3/2 398/3/2 404/3/2
f 399/3/2 400/3/2 405/3/2
f 404/2/2 399/2/2 405/2/2
f 405/3/2 400/3/2 406/3/2
f 407/2/2 408/2/2 412/2/2
f 408/3/2 409/3/2 413/3/2
f 412/2/2 408/2/2 413/2/2
f 413/3/2 409/3/2 414/3/2
f 410/3/2 411/3/2 415/3/2
f 415/3/2 411/3/2 416/3/2
f 417/1/2 418/1/2 421/1/2
f 421/1/2 418/1/2 422/1/2
f 419/1/2 420/1/2 423/1/2
f 423/1/2 420/1/2 424/1/2
f 425/2/2 426/2/2 430/2/2
f 430/2/2 426/2/2 431/2/2
f 427/2/2 428/2/2 432/2/2
f 428/3/2 429/3/2 433/3/2
f 432/2/2 428/2/2 433/2/2
f 433/3/2 429/3/2 434/3/2
f 435/2/2 436/2/2 439/2/2
f 439/2/2 436/2/2 440/2/2
f 437/3/2 438/3/2 441/3/2
f 441/3/2 438/3/2 442/3/2
f 443/2/2 444/2/2 447/2/2
f 447/2/2 444/2/2 448/2/2
f 445/3/2 446/3/2 449/3/2
f 449/3/2 446/3/2 450/3/2
f 451/1/2 452/1/2 453/1/2
f 453/1/2 452/1/2 454/1/2
f 455/1/2 456/1/2 457/1/2
f 457/1/2 456/1/2 458/1/2
f 459/1/2 460/1/2 463/1/2
f 463/1/2 460/1/2 464/1/2
f 464/1/2 460/1/2 465/1/2
f 461/1/2 462/1/2 468/1/2
f 468/1/2 462/1/2 469/1/2
f 466/1/2 467/1/2 472/1/2
f 470/1/2 471/1/2 473/1/2
f 473/1/2 471/1/2 474/1/2
f 472/1/2 467/1/2 475/1/2
f 475/1/2 467/1/2 476/1/2
f 477/1/2 478/1/2 479/1/2
f 479/1/2 478/1/2 480/1/2
f 481/1/2 482/1/2 485/1/2
f 485/1/2 482/1/2 486/1/2
f 483/1/2 484/1/2 487/1/2
f 487/1/2 484/1/2 488/1/2
f 489/1/2 490/1/2 491/1/2
f 491/1/2 490/1/2 492/1/2
f 489/1/2 491/1/2 493/1/2
f 493/1/2 491/1/2 494/1/2
f 491/4/2 492/4/2 495/4/2
f 494/1/2 491/1/2 495/1/2
f 492/1/2 490/1/2 496/1/2
f 495/4/2 492/4/2 496/4/2
f 489/1/2 493/1/2 497/1/2
f 497/1/2 493/1/2 498/1/2
f 494/1/2 495/1/2 499/1/2
f 496/1/2 490/1/2 499/1/2
f 495/1/2 496/1/2 499/1/2
f 499/1/2 490/1/2 500/1/2
f 498/1/2 493/1/2 501/1/2
f 494/1/2 499/1/2 503/1/2
f 497/4/2 498/4/2 504/4/2
f 489/1/2 497/1/2 504/1/2
f 498/1/2 501/1/2 505/1/2
f 504/4/2 498/4/2 505/4/2
f 501/4/2 502/4/2 506/4/2
f 505/1/2 501/1/2 506/1/2
f 502/1/2 503/1/2 507/1/2
f 506/4/2 502/4/2 507/4/2
f 505/1/2 506/1/2 508/1/2
f 507/1/2 503/1/2 508/1/2
f 506/1/2 507/1/2 508/1/2
f 503/1/2 499/1/2 508/1/2
f 504/1/2 505/1/2 508/1/2
f 508/1/2 499/1/2 509/1/2
f 508/4/2 509/4/2 510/4/2
f 509/1/2 499/1/2 510/1/2
f 510/1/2 499/1/2 511/1/2
f 511/1/2 499/1/2 512/1/2
f 500/1/2 490/1/2 513/1/2
f 489/1/2 504/1/2 514/1/2
f 504/1/2 508/1/2 514/1/2
f 514/1/2 508/1/2 515/1/2
f 508/4/2 510/4/2 516/4/2
f 515/1/2 508/1/2 516/1/2
f 516/4/2 510/4/2 517/4/2
f 489/1/2 514/1/2 518/1/2
f 516/1/2 517/1/2 519/1/2
f 515/1/2 516/1/2 519/1/2
f 489/1/2 518/1/2 520/1/2
f 518/1/2 519/1/2 520/1/2
f 520/1/2 519/1/2 521/1/2
f 519/1/2 517/1/2 522/1/2
f 521/1/2 519/1/2 522/1/2
f 511/1/2 512/1/2 523/1/2
f 512/1/2 513/1/2 523/1/2
f 489/1/2 520/1/2 524/1/2
f 520/4/2 521/4/2 524/4/2
f 521/1/2 522/1/2 525/1/2
f 524/4/2 521/4/2 525/4/2
f 522/1/2 523/1/2 525/1/2
f 523/1/2 513/1/2 526/1/2
f 525/1/2 523/1/2 526/1/2
f 524/1/2 525/1/2 526/1/2
f 526/1/2 513/1/2 527/1/2
f 524/1/2 526/1/2 528/1/2
f 528/1/2 526/1/2 529/1/2
f 529/1/2 526/1/2 530/1/2
f 530/1/2 526/1/2 531/1/2
f 524/1/2 528/1/2 532/1/2
f 528/4/2 529/4/2 532/4/2
f 529/1/2 530/1/2 533/1/2
f 532/4/2 529/4/2 533/4/2
f 533/1/2 530/1/2 534/1/2
f 534/1/2 530/1/2 535/1/2
f 530/4/2 531/4/2 536/4/2
f 535/1/2 530/1/2 536/1/2
f 531/1/2 526/1/2 537/1/2
f 536/4/2 531/4/2 537/4/2
f 533/1/2 534/1/2 538/1/2
f 532/1/2 533/1/2 538/1/2
f 535/1/2 536/1/2 539/1/2
f 536/1/2 537/1/2 539/1/2
f 526/4/2 527/4/2 540/4/2
f 537/1/2 526/1/2 540/1/2
f 539/1/2 537/1/2 540/1/2
f 540/4/2 527/4/2 541/4/2
f 538/1/2 539/1/2 542/1/2
f 532/1/2 538/1/2 542/1/2
f 540/1/2 541/1/2 542/1/2
f 539/1/2 540/1/2 542/1/2
f 542/1/2 541/1/2 543/1/2
f 541/4/2 527/4/2 544/4/2
f 543/1/2 541/1/2 544/1/2
f 527/1/2 513/1/2 545/1/2
f 544/4/2 527/4/2 545/4/2
f 543/1/2 544/1/2 546/1/2
f 544/1/2 545/1/2 546/1/2
f 546/1/2 545/1/2 547/1/2
f 542/4/2 543/4/2 548/4/2
f 532/1/2 542/1/2 548/1/2
f 543/1/2 546/1/2 549/1/2
f 548/4/2 543/4/2 549/4/2
f 524/1/2 532/1/2 550/1/2
f 532/1/2 548/1/2 550/1/2
f 548/1/2 549/1/2 550/1/2
f 550/1/2 549/1/2 551/1/2
f 549/1/2 546/1/2 552/1/2
f 551/1/2 549/1/2 552/1/2
f 547/1/2 545/1/2 553/1/2
f 553/1/2 545/1/2 554/1/2
f 545/1/2 513/1/2 555/1/2
f 554/1/2 545/1/2 555/1/2
f 489/1/2 524/1/2 556/1/2
f 524/1/2 550/1/2 556/1/2
f 556/1/2 550/1/2 557/1/2
f 553/1/2 554/1/2 558/1/2
f 551/1/2 552/1/2 558/1/2
f 552/1/2 553/1/2 558/1/2
f 558/1/2 554/1/2 559/1/2
f 559/1/2 554/1/2 560/1/2
f 554/2/2 555/2/2 561/2/2
f 560/1/2 554/1/2 561/1/2
f 555/1/2 513/1/2 562/1/2
f 561/2/2 555/2/2 562/2/2
f 562/1/2 513/1/2 563/1/2
f 489/1/2 556/1/2 564/1/2
f 556/2/2 557/2/2 565/2/2
f 564/1/2 556/1/2 565/1/2
f 557/1/2 550/1/2 566/1/2
f 565/2/2 557/2/2 566/2/2
f 566/1/2 550/1/2 567/1/2
f 567/1/2 550/1/2 568/1/2
f 551/1/2 558/1/2 569/1/2
f 559/1/2 560/1/2 570/1/2
f 560/2/2 561/2/2 571/2/2
f 570/1/2 560/1/2 571/1/2
f 561/2/2 562/2/2 571/2/2
f 562/2/2 563/2/2 571/2/2
f 563/1/2 513/1/2 572/1/2
f 571/2/2 563/2/2 572/2/2
f 513/1/2 490/1/2 573/1/2
f 572/1/2 513/1/2 573/1/2
f 568/1/2 569/1/2 574/1/2
f 567/1/2 568/1/2 574/1/2
f 569/1/2 558/1/2 574/1/2
f 574/1/2 558/1/2 575/1/2
f 567/1/2 574/1/2 576/1/2
f 574/4/2 575/4/2 576/4/2
f 575/1/2 558/1/2 577/1/2
f 576/4/2 575/4/2 577/4/2
f 577/1/2 558/1/2 578/1/2
f 558/2/2 559/2/2 579/2/2
f 578/1/2 558/1/2 579/1/2
f 559/1/2 570/1/2 580/1/2
f 579/2/2 559/2/2 580/2/2
f 580/1/2 570/1/2 581/1/2
f 581/1/2 570/1/2 582/1/2
f 582/1/2 570/1/2 583/1/2
f 564/2/2 565/2/2 584/2/2
f 577/1/2 578/1/2 584/1/2
f 566/2/2 567/2/2 584/2/2
f 565/2/2 566/2/2 584/2/2
f 567/1/2 576/1/2 584/1/2
f 576/1/2 577/1/2 584/1/2
f 584/1/2 578/1/2 585/1/2
f 581/1/2 582/1/2 586/1/2
f 582/2/2 583/2/2 587/2/2
f 586/1/2 582/1/2 587/1/2
f 583/1/2 570/1/2 588/1/2
f 587/2/2 583/2/2 588/2/2
f 588/1/2 570/1/2 589/1/2
f 586/2/2 587/2/2 590/2/2
f 589/1/2 570/1/2 590/1/2
f 588/2/2 589/2/2 590/2/2
f 587/2/2 588/2/2 590/2/2
f 571/2/2 572/2/2 591/2/2
f 590/1/2 570/1/2 591/1/2
f 570/2/2 571/2/2 591/2/2
f 572/2/2 573/2/2 591/2/2
f 581/1/2 586/1/2 592/1/2
f 586/2/2 590/2/2 593/2/2
f 592/1/2 586/1/2 593/1/2
f 590/2/2 591/2/2 593/2/2
f 584/2/2 585/2/2 594/2/2
f 585/1/2 578/1/2 594/1/2
f 578/2/2 579/2/2 595/2/2
f 594/1/2 578/1/2 595/1/2
f 579/2/2 580/2/2 595/2/2
f 580/2/2 581/2/2 595/2/2
f 581/1/2 592/1/2 596/1/2
f 595/2/2 581/2/2 596/2/2
f 592/2/2 593/2/2 597/2/2
f 596/1/2 592/1/2 597/1/2
f 584/2/2 594/2/2 598/2/2
f 594/2/2 595/2/2 598/2/2
f 596/2/2 597/2/2 598/2/2
f 595/2/2 596/2/2 598/2/2
f 564/2/2 584/2/2 598/2/2
f 597/2/2 593/2/2 599/2/2
f 598/2/2 597/2/2 599/2/2
f 591/2/2 573/2/2 599/2/2
f 593/2/2 591/2/2 599/2/2
f 603/1/3 601/1/3 600/1/3
f 604/1/3 601/1/3 603/1/3
f 605/1/3 603/1/3 600/1/3
f 606/1/3 603/1/3 605/1/3
f 607/4/3 604/4/3 603/4/3
f 607/1/3 603/1/3 606/1/3
f 608/1/3 601/1/3 604/1/3
f 608/4/3 604/4/3 607/4/3
f 609/1/3 607/1/3 606/1/3
f 609/1/3 608/1/3 607/1/3
f 610/1/3 608/1/3 609/1/3
f 611/2/3 602/2/3 601/2/3
f 612/2/3 602/2/3 611/2/3
f 613/1/3 608/1/3 610/1/3
f 614/1/3 601/1/3 608/1/3
f 614/1/3 608/1/3 613/1/3
f 615/1/3 605/1/3 600/1/3
f 616/1/3 609/1/3 606/1/3
f 617/4/3 610/4/3 609/4/3
f 617/1/3 609/1/3 616/1/3
f 618/1/3 613/1/3 610/1/3
f 618/4/3 610/4/3 617/4/3
f 619/1/3 601/1/3 614/1/3
f 619/2/3 611/2/3 601/2/3
f 620/2/3 611/2/3 619/2/3
f 621/1/3 617/1/3 616/1/3
f 621/1/3 615/1/3 600/1/3
f 621/1/3 616/1/3 615/1/3
f 621/1/3 618/1/3 617/1/3
f 622/1/3 618/1/3 621/1/3
f 623/1/3 613/1/3 618/1/3
f 623/1/3 618/1/3 622/1/3
f 624/1/3 613/1/3 623/1/3
f 625/1/3 613/1/3 624/1/3
f 626/1/3 620/1/3 619/1/3
f 626/1/3 619/1/3 614/1/3
f 627/2/3 611/2/3 620/2/3
f 627/1/3 620/1/3 626/1/3
f 628/2/3 611/2/3 627/2/3
f 629/4/3 622/4/3 621/4/3
f 629/1/3 621/1/3 600/1/3
f 630/1/3 623/1/3 622/1/3
f 630/4/3 622/4/3 629/4/3
f 631/1/3 623/1/3 630/1/3
f 632/4/3 624/4/3 623/4/3
f 632/1/3 623/1/3 631/1/3
f 633/1/3 626/1/3 625/1/3
f 633/4/3 624/4/3 632/4/3
f 633/1/3 625/1/3 624/1/3
f 633/1/3 628/1/3 627/1/3
f 633/1/3 627/1/3 626/1/3
f 634/2/3 611/2/3 628/2/3
f 636/2/3 635/2/3 634/2/3
f 636/2/3 634/2/3 628/2/3
f 636/1/3 628/1/3 633/1/3
f 637/2/3 635/2/3 636/2/3
f 638/1/3 637/1/3 636/1/3
f 638/2/3 635/2/3 637/2/3
f 639/2/3 635/2/3 638/2/3
f 640/1/3 629/1/3 600/1/3
f 640/1/3 630/1/3 629/1/3
f 640/1/3 631/1/3 630/1/3
f 641/1/3 631/1/3 640/1/3
f 642/1/3 631/1/3 641/1/3
f 643/1/3 639/1/3 638/1/3
f 643/1/3 638/1/3 636/1/3
f 643/1/3 636/1/3 633/1/3
f 644/2/3 635/2/3 639/2/3
f 644/1/3 639/1/3 643/1/3
f 645/2/3 635/2/3 644/2/3
f 646/1/3 643/1/3 642/1/3
f 646/1/3 642/1/3 641/1/3
f 646/1/3 645/1/3 644/1/3
f 646/1/3 644/1/3 643/1/3
f 647/2/3 635/2/3 645/2/3
f 647/1/3 645/1/3 646/1/3
f 648/4/3 641/4/3 640/4/3
f 649/1/3 646/1/3 641/1/3
f 649/4/3 641/4/3 648/4/3
f 650/1/3 646/1/3 649/1/3
f 651/1/3 646/1/3 650/1/3
f 652/1/3 646/1/3 651/1/3
f 653/2/3 647/2/3 646/2/3
f 653/1/3 646/1/3 652/1/3
f 654/1/3 652/1/3 651/1/3
f 655/2/3 653/2/3 652/2/3
f 655/1/3 652/1/3 654/1/3
f 656/1/3 649/1/3 648/1/3
f 656/1/3 650/1/3 649/1/3
f 656/4/3 651/4/3 650/4/3
f 657/1/3 654/1/3 651/1/3
f 657/4/3 651/4/3 656/4/3
f 658/2/3 655/2/3 654/2/3
f 658/1/3 654/1/3 657/1/3
f 659/2/3 647/2/3 653/2/3
f 659/2/3 655/2/3 658/2/3
f 659/2/3 653/2/3 655/2/3
f 660/1/3 658/1/3 657/1/3
f 660/1/3 656/1/3 648/1/3
f 660/1/3 659/1/3 658/1/3
f 660/1/3 657/1/3 656/1/3
f 661/1/3 659/1/3 660/1/3
f 662/1/3 660/1/3 648/1/3
f 663/1/3 660/1/3 662/1/3
f 664/2/3 647/2/3 659/2/3
f 664/1/3 659/1/3 661/1/3
f 665/2/3 635/2/3 647/2/3
f 665/2/3 647/2/3 664/2/3
f 666/1/3 660/1/3 663/1/3
f 666/4/3 661/4/3 660/4/3
f 667/1/3 664/1/3 661/1/3
f 667/4/3 661/4/3 666/4/3
f 667/1/3 665/1/3 664/1/3
f 668/1/3 665/1/3 667/1/3
f 669/1/3 665/1/3 668/1/3
f 670/1/3 665/1/3 669/1/3
f 671/2/3 635/2/3 665/2/3
f 671/1/3 665/1/3 670/1/3
f 672/1/3 662/1/3 648/1/3
f 673/1/3 666/1/3 663/1/3
f 673/1/3 667/1/3 666/1/3
f 673/1/3 668/1/3 667/1/3
f 674/1/3 670/1/3 669/1/3
f 675/2/3 671/2/3 670/2/3
f 675/1/3 670/1/3 674/1/3
f 676/1/3 672/1/3 648/1/3
f 676/1/3 673/1/3 672/1/3
f 677/1/3 673/1/3 676/1/3
f 678/1/3 674/1/3 669/1/3
f 679/1/3 674/1/3 678/1/3
f 680/2/3 675/2/3 674/2/3
f 680/1/3 674/1/3 679/1/3
f 681/2/3 675/2/3 680/2/3
f 682/1/3 680/1/3 679/1/3
f 682/2/3 675/2/3 681/2/3
f 682/1/3 681/1/3 680/1/3
f 683/2/3 671/2/3 675/2/3
f 683/2/3 675/2/3 682/2/3
f 684/1/3 676/1/3 648/1/3
f 684/4/3 677/4/3 676/4/3
f 685/1/3 673/1/3 677/1/3
f 685/4/3 677/4/3 684/4/3
f 686/4/3 679/4/3 678/4/3
f 686/1/3 678/1/3 669/1/3
f 687/1/3 682/1/3 679/1/3
f 687/4/3 679/4/3 686/4/3
f 687/1/3 683/1/3 682/1/3
f 688/2/3 671/2/3 683/2/3
f 688/1/3 683/1/3 687/1/3
f 689/2/3 671/2/3 688/2/3
f 690/1/3 687/1/3 686/1/3
f 690/1/3 688/1/3 687/1/3
f 690/1/3 689/1/3 688/1/3
f 691/2/3 671/2/3 689/2/3
f 691/1/3 689/1/3 690/1/3
f 692/2/3 635/2/3 671/2/3
f 692/2/3 671/2/3 691/2/3
f 693/2/3 635/2/3 692/2/3
f 694/1/3 684/1/3 648/1/3
f 694/1/3 685/1/3 684/1/3
f 695/1/3 685/1/3 694/1/3
f 696/1/3 673/1/3 685/1/3
f 696/1/3 685/1/3 695/1/3
f 696/1/3 668/1/3 673/1/3
f 697/1/3 686/1/3 669/1/3
f 697/1/3 690/1/3 686/1/3
f 698/1/3 696/1/3 695/1/3
f 698/1/3 697/1/3 696/1/3
f 699/1/3 697/1/3 698/1/3
f 700/1/3 690/1/3 697/1/3
f 700/1/3 697/1/3 699/1/3
f 701/2/3 691/2/3 690/2/3
f 701/1/3 690/1/3 700/1/3
f 701/2/3 692/2/3 691/2/3
f 702/4/3 695/4/3 694/4/3
f 702/1/3 694/1/3 648/1/3
f 703/1/3 698/1/3 695/1/3
f 703/4/3 695/4/3 702/4/3
f 704/2/3 692/2/3 701/2/3
f 704/2/3 701/2/3 700/2/3
f 706/4/3 699/4/3 698/4/3
f 706/1/3 698/1/3 703/1/3
f 706/1/3 703/1/3 702/1/3
f 707/1/3 700/1/3 699/1/3
f 707/4/3 699/4/3 706/4/3
f 708/1/3 700/1/3 707/1/3
f 709/2/3 705/2/3 704/2/3
f 709/1/3 700/1/3 708/1/3
f 709/2/3 704/2/3 700/2/3
f 710/1/3 708/1/3 707/1/3
f 710/1/3 707/1/3 706/1/3
f 711/1/3 708/1/3 710/1/3
f 712/1/3 706/1/3 702/1/3
f 712/1/3 710/1/3 706/1/3
f 713/1/3 710/1/3 712/1/3
f 714/1/3 710/1/3 713/1/3
f 715/1/3 710/1/3 714/1/3
f 716/4/3 711/4/3 710/4/3
f 716/1/3 710/1/3 715/1/3
f 717/1/3 708/1/3 711/1/3
f 717/4/3 711/4/3 716/4/3
f 718/4/3 715/4/3 714/4/3
f 718/1/3 714/1/3 713/1/3
f 719/1/3 716/1/3 715/1/3
f 719/4/3 715/4/3 718/4/3
f 719/1/3 717/1/3 716/1/3
f 720/1/3 708/1/3 717/1/3
f 720/1/3 717/1/3 719/1/3
f 721/2/3 709/2/3 708/2/3
f 721/1/3 708/1/3 720/1/3
f 722/1/3 712/1/3 702/1/3
f 722/4/3 713/4/3 712/4/3
f 723/1/3 720/1/3 719/1/3
f 723/4/3 713/4/3 722/4/3
f 723/1/3 718/1/3 713/1/3
f 723/1/3 719/1/3 718/1/3
f 724/4/3 721/4/3 720/4/3
f 724/1/3 720/1/3 723/1/3
f 724/1/3 723/1/3 722/1/3
f 725/2/3 709/2/3 721/2/3
f 725/4/3 721/4/3 724/4/3
f 726/1/3 722/1/3 702/1/3
f 726/1/3 724/1/3 722/1/3
f 726/1/3 725/1/3 724/1/3
f 726/1/3 702/1/3 648/1/3
f 727/2/3 709/2/3 725/2/3
f 727/1/3 725/1/3 726/1/3
f 728/2/3 705/2/3 709/2/3
f 728/2/3 709/2/3 727/2/3
f 733/1/3 730/1/3 729/1/3
f 734/1/3 730/1/3 733/1/3
f 735/1/3 732/1/3 731/1/3
f 736/1/3 732/1/3 735/1/3
f 740/1/3 738/1/3 737/1/3
f 740/1/3 739/1/3 738/1/3
f 741/1/3 739/1/3 740/1/3
f 746/1/3 743/1/3 742/1/3
f 747/1/3 743/1/3 746/1/3
f 748/1/3 745/1/3 744/1/3
f 749/1/3 745/1/3 748/1/3
f 752/1/3 751/1/3 750/1/3
f 753/1/3 751/1/3 752/1/3
f 756/2/3 755/2/3 754/2/3
f 757/2/3 755/2/3 756/2/3
f 760/1/3 759/1/3 758/1/3
f 761/1/3 759/1/3 760/1/3
f 764/1/3 763/1/3 762/1/3
f 765/1/3 763/1/3 764/1/3
f 768/2/3 767/2/3 766/2/3
f 769/2/3 767/2/3 768/2/3
f 772/1/3 771/1/3 770/1/3
f 773/1/3 771/1/3 772/1/3
f 776/1/3 775/1/3 774/1/3
f 777/1/3 775/1/3 776/1/3
f 780/1/3 779/1/3 778/1/3
f 781/1/3 779/1/3 780/1/3
f 784/2/3 783/2/3 782/2/3
f 785/2/3 783/2/3 784/2/3
f 788/1/3 787/1/3 786/1/3
f 789/1/3 787/1/3 788/1/3
f 792/1/3 791/1/3 790/1/3
f 793/1/3 791/1/3 792/1/3
f 796/1/3 795/1/3 794/1/3
f 797/1/3 795/1/3 796/1/3
f 800/1/3 799/1/3 798/1/3
f 801/1/3 799/1/3 800/1/3
f 804/1/3 803/1/3 802/1/3
f 805/1/3 803/1/3 804/1/3
f 808/2/3 807/2/3 806/2/3
f 809/2/3 807/2/3 808/2/3
f 812/3/3 811/3/3 810/3/3
f 813/3/3 811/3/3 812/3/3
f 816/1/3 815/1/3 814/1/3
f 817/1/3 815/1/3 816/1/3
f 820/1/3 819/1/3 818/1/3
f 821/1/3 819/1/3 820/1/3
f 824/3/3 823/3/3 822/3/3
f 825/3/3 823/3/3 824/3/3
f 828/1/3 827/1/3 826/1/3
f 829/1/3 827/1/3 828/1/3
f 832/1/3 831/1/3 830/1/3
f 833/1/3 831/1/3 832/1/3
f 836/4/3 835/4/3 834/4/3
f 837/4/3 835/4/3 836/4/3
f 840/1/3 839/1/3 838/1/3
f 841/1/3 839/1/3 840/1/3
f 844/1/3 843/1/3 842/1/3
f 845/1/3 843/1/3 844/1/3
f 848/3/3 847/3/3 846/3/3
f 849/3/3 847/3/3 848/3/3
f 854/2/3 851/2/3 850/2/3
f 855/2/3 851/2/3 854/2/3
f 856/1/3 853/1/3 852/1/3
f 857/1/3 853/1/3 856/1/3
f 860/3/3 859/3/3 858/3/3
f 861/3/3 859/3/3 860/3/3
f 864/1/3 863/1/3 862/1/3
f 865/1/3 863/1/3 864/1/3
f 868/1/3 867/1/3 866/1/3
f 869/1/3 867/1/3 868/1/3
f 872/3/3 871/3/3 870/3/3
f 873/3/3 871/3/3 872/3/3
f 874/1/4 875/1/4 876/1/4
f 876/1/4 875/1/4 877/1/4
f 878/2/4 879/2/4 880/2/4
f 880/2/4 879/2/4 881/2/4
f 882/2/4 883/2/4 884/2/4
f 884/2/4 883/2/4 885/2/4
f 886/1/4 887/1/4 888/1/4
f 888/1/4 887/1/4 889/1/4
f 890/1/4 891/1/4 892/1/4
f 892/1/4 891/1/4 893/1/4
f 894/1/4 895/1/4 896/1/4
f 896/1/4 895/1/4 897/1/4
f 898/2/4 899/2/4 900/2/4
f 900/2/4 899/2/4 901/2/4
f 902/2/4 903/2/4 904/2/4
f 904/2/4 903/2/4 905/2/4
f 906/1/4 907/1/4 908/1/4
f 908/1/4 907/1/4 909/1/4
f 910/1/4 911/1/4 912/1/4
f 912/1/4 911/1/4 913/1/4
f 914/1/4 915/1/4 916/1/4
f 916/1/4 915/1/4 917/1/4
f 918/1/4 919/1/4 922/1/4
f 919/4/4 920/4/4 923/4/4
f 922/1/4 919/1/4 923/1/4
f 920/1/4 921/1/4 924/1/4
f 923/4/4 920/4/4 924/4/4
f 924/1/4 921/1/4 925/1/4
f 926/1/4 927/1/4 928/1/4
f 928/1/4 927/1/4 929/1/4
f 930/1/4 931/1/4 932/1/4
f 932/1/4 931/1/4 933/1/4
f 934/3/4 935/3/4 936/3/4
f 936/3/4 935/3/4 937/3/4
f 938/1/4 939/1/4 940/1/4
f 940/1/4 939/1/4 941/1/4
f 942/3/4 943/3/4 944/3/4
f 944/3/4 943/3/4 945/3/4
f 946/1/4 947/1/4 948/1/4
f 948/1/4 947/1/4 949/1/4
f 950/1/4 951/1/4 952/1/4
f 952/1/4 951/1/4 953/1/4
f 954/3/4 955/3/4 956/3/4
f 956/3/4 955/3/4 957/3/4
f 958/1/4 959/1/4 960/1/4
f 960/1/4 959/1/4 961/1/4
f 962/2/4 963/2/4 964/2/4
f 964/2/4 963/2/4 965/2/4
f 966/1/4 967/1/4 968/1/4
f 968/1/4 967/1/4 969/1/4
f 970/2/4 971/2/4 972/2/4
f 972/2/4 971/2/4 973/2/4
f 974/4/4 975/4/4 977/4/4
f 975/1/4 976/1/4 978/1/4
f 977/4/4 975/4/4 978/4/4
f 978/1/4 976/1/4 979/1/4
f 980/2/4 981/2/4 982/2/4
f 982/2/4 981/2/4 983/2/4
f 984/1/4 985/1/4 986/1/4
f 986/1/4 985/1/4 987/1/4
f 986/4/4 987/4/4 988/4/4
f 988/4/4 987/4/4 989/4/4
f 990/1/4 991/1/4 992/1/4
f 992/1/4 991/1/4 993/1/4
f 994/1/4 995/1/4 996/1/4
f 996/1/4 995/1/4 997/1/4
f 998/1/4 999/1/4 1000/1/4
f 998/1/4 1000/1/4 1002/1/4
f 1000/1/4 1001/1/4 1002/1/4
f 1002/1/4 1001/1/4 1003/1/4
f 1003/1/4 1001/1/4 1004/1/4
f 1004/1/4 1001/1/4 1005/1/4
f 1006/1/4 1007/1/4 1009/1/4
f 1007/1/4 1008/1/4 1009/1/4
f 1006/1/4 1009/1/4 1010/1/4
f 1006/1/4 1010/1/4 1011/1/4
f 1011/1/4 1010/1/4 1012/1/4
f 1013/1/4 1014/1/4 1015/1/4
f 1015/1/4 1014/1/4 1016/1/4
f 1018/2/4 1019/2/4 1023/2/4
f 1019/3/4 1020/3/4 1023/3/4
f 1020/2/4 1021/2/4 1024/2/4
f 1023/3/4 1020/3/4 1024/3/4
f 1021/3/4 1022/3/4 1025/3/4
f 1024/2/4 1021/2/4 1025/2/4
f 1023/2/4 1024/2/4 1025/2/4
f 1025/3/4 1022/3/4 1026/3/4
f 1017/1/4 1018/1/4 1027/1/4
f 1027/1/4 1018/1/4 1028/1/4
f 1023/2/4 1025/2/4 1029/2/4
f 1025/2/4 1026/2/4 1029/2/4
f 1029/2/4 1026/2/4 1030/2/4
f 1027/4/4 1028/4/4 1031/4/4
f 1017/1/4 1027/1/4 1031/1/4
f 1028/1/4 1018/1/4 1032/1/4
f 1031/4/4 1028/4/4 1032/4/4
f 1017/1/4 1031/1/4 1033/1/4
f 1031/1/4 1032/1/4 1033/1/4
f 1033/1/4 1032/1/4 1034/1/4
f 1023/2/4 1029/2/4 1035/2/4
f 1035/2/4 1029/2/4 1036/2/4
f 1017/1/4 1033/1/4 1037/1/4
f 1033/4/4 1034/4/4 1037/4/4
f 1034/1/4 1032/1/4 1038/1/4
f 1037/4/4 1034/4/4 1038/4/4
f 1038/1/4 1032/1/4 1039/1/4
f 1039/1/4 1032/1/4 1040/1/4
f 1032/1/4 1018/1/4 1041/1/4
f 1040/1/4 1032/1/4 1041/1/4
f 1018/2/4 1023/2/4 1042/2/4
f 1041/1/4 1018/1/4 1042/1/4
f 1023/2/4 1035/2/4 1042/2/4
f 1042/2/4 1035/2/4 1043/2/4
f 1037/1/4 1038/1/4 1044/1/4
f 1043/2/4 1035/2/4 1046/2/4
f 1042/1/4 1043/1/4 1046/1/4
f 1041/1/4 1042/1/4 1046/1/4
f 1046/2/4 1035/2/4 1047/2/4
f 1035/3/4 1036/3/4 1048/3/4
f 1047/2/4 1035/2/4 1048/2/4
f 1048/3/4 1036/3/4 1049/3/4
f 1047/2/4 1048/2/4 1050/2/4
f 1048/2/4 1049/2/4 1050/2/4
f 1047/2/4 1050/2/4 1052/2/4
f 1050/2/4 1051/2/4 1052/2/4
f 1046/1/4 1047/1/4 1052/1/4
f 1052/2/4 1051/2/4 1053/2/4
f 1044/1/4 1045/1/4 1054/1/4
f 1017/1/4 1037/1/4 1054/1/4
f 1037/1/4 1044/1/4 1054/1/4
f 1054/1/4 1045/1/4 1055/1/4
f 1053/2/4 1051/2/4 1056/2/4
f 1052/1/4 1053/1/4 1056/1/4
f 1056/2/4 1051/2/4 1057/2/4
f 1055/1/4 1045/1/4 1058/1/4
f 1041/1/4 1046/1/4 1059/1/4
f 1046/1/4 1052/1/4 1059/1/4
f 1056/1/4 1057/1/4 1059/1/4
f 1052/1/4 1056/1/4 1059/1/4
f 1059/1/4 1057/1/4 1060/1/4
f 1057/2/4 1051/2/4 1061/2/4
f 1060/1/4 1057/1/4 1061/1/4
f 1054/4/4 1055/4/4 1062/4/4
f 1017/1/4 1054/1/4 1062/1/4
f 1062/4/4 1055/4/4 1063/4/4
f 1059/1/4 1060/1/4 1064/1/4
f 1063/4/4 1055/4/4 1064/4/4
f 1055/1/4 1058/1/4 1064/1/4
f 1058/1/4 1059/1/4 1064/1/4
f 1064/1/4 1060/1/4 1065/1/4
f 1065/1/4 1060/1/4 1066/1/4
f 1060/2/4 1061/2/4 1067/2/4
f 1066/1/4 1060/1/4 1067/1/4
f 1065/1/4 1066/1/4 1068/1/4
f 1068/1/4 1066/1/4 1069/1/4
f 1066/2/4 1067/2/4 1070/2/4
f 1069/1/4 1066/1/4 1070/1/4
f 1070/2/4 1067/2/4 1071/2/4
f 1062/1/4 1063/1/4 1072/1/4
f 1017/1/4 1062/1/4 1072/1/4
f 1072/1/4 1063/1/4 1073/1/4
f 1068/4/4 1069/4/4 1074/4/4
f 1070/1/4 1071/1/4 1075/1/4
f 1074/4/4 1069/4/4 1075/4/4
f 1069/1/4 1070/1/4 1075/1/4
f 1071/2/4 1067/2/4 1076/2/4
f 1075/1/4 1071/1/4 1076/1/4
f 1067/2/4 1061/2/4 1077/2/4
f 1076/2/4 1067/2/4 1077/2/4
f 1072/4/4 1073/4/4 1078/4/4
f 1017/1/4 1072/1/4 1078/1/4
f 1073/1/4 1063/1/4 1079/1/4
f 1078/4/4 1073/4/4 1079/4/4
f 1074/1/4 1075/1/4 1080/1/4
f 1075/1/4 1076/1/4 1080/1/4
f 1077/2/4 1061/2/4 1080/2/4
f 1076/1/4 1077/1/4 1080/1/4
f 1061/2/4 1051/2/4 1081/2/4
f 1080/2/4 1061/2/4 1081/2/4
f 1080/1/4 1081/1/4 1082/1/4
f 1081/2/4 1051/2/4 1082/2/4
f 1082/2/4 1051/2/4 1083/2/4
f 1082/1/4 1083/1/4 1084/1/4
f 1083/2/4 1051/2/4 1084/2/4
f 1084/2/4 1051/2/4 1085/2/4
f 1079/1/4 1063/1/4 1086/1/4
f 1078/1/4 1079/1/4 1086/1/4
f 1086/1/4 1063/1/4 1087/1/4
f 1074/1/4 1080/1/4 1088/1/4
f 1084/1/4 1085/1/4 1088/1/4
f 1080/1/4 1082/1/4 1088/1/4
f 1082/1/4 1084/1/4 1088/1/4
f 1088/1/4 1085/1/4 1089/1/4
f 1089/1/4 1085/1/4 1090/1/4
f 1085/2/4 1051/2/4 1091/2/4
f 1090/1/4 1085/1/4 1091/1/4
f 1086/4/4 1087/4/4 1092/4/4
f 1078/1/4 1086/1/4 1092/1/4
f 1087/1/4 1063/1/4 1093/1/4
f 1092/4/4 1087/4/4 1093/4/4
f 1091/2/4 1051/2/4 1094/2/4
f 1090/2/4 1091/2/4 1094/2/4
f 1094/2/4 1051/2/4 1095/2/4
f 1089/1/4 1090/1/4 1096/1/4
f 1090/2/4 1094/2/4 1097/2/4
f 1096/1/4 1090/1/4 1097/1/4
f 1093/1/4 1063/1/4 1098/1/4
f 1092/1/4 1093/1/4 1098/1/4
f 1074/1/4 1088/1/4 1099/1/4
f 1089/1/4 1096/1/4 1100/1/4
f 1096/2/4 1097/2/4 1101/2/4
f 1100/1/4 1096/1/4 1101/1/4
f 1088/4/4 1089/4/4 1102/4/4
f 1098/1/4 1099/1/4 1102/1/4
f 1099/1/4 1088/1/4 1102/1/4
f 1089/1/4 1100/1/4 1103/1/4
f 1102/4/4 1089/4/4 1103/4/4
f 1103/1/4 1100/1/4 1104/1/4
f 1100/2/4 1101/2/4 1105/2/4
f 1104/1/4 1100/1/4 1105/1/4
f 1094/3/4 1095/3/4 1106/3/4
f 1106/3/4 1095/3/4 1107/3/4
f 1098/1/4 1102/1/4 1108/1/4
f 1103/1/4 1104/1/4 1108/1/4
f 1102/1/4 1103/1/4 1108/1/4
f 1108/1/4 1104/1/4 1109/1/4
f 1109/1/4 1104/1/4 1110/1/4
f 1110/1/4 1104/1/4 1111/1/4
f 1097/2/4 1094/2/4 1112/2/4
f 1101/2/4 1097/2/4 1112/2/4
f 1094/3/4 1106/3/4 1112/3/4
f 1105/2/4 1101/2/4 1112/2/4
f 1104/2/4 1105/2/4 1112/2/4
f 1112/3/4 1106/3/4 1113/3/4
f 1111/1/4 1104/1/4 1114/1/4
f 1112/2/4 1113/2/4 1115/2/4
f 1114/1/4 1104/1/4 1115/1/4
f 1104/2/4 1112/2/4 1115/2/4
f 1108/4/4 1109/4/4 1116/4/4
f 1098/1/4 1108/1/4 1116/1/4
f 1109/1/4 1110/1/4 1117/1/4
f 1116/4/4 1109/4/4 1117/4/4
f 1115/2/4 1113/2/4 1118/2/4
f 1114/2/4 1115/2/4 1118/2/4
f 1111/1/4 1114/1/4 1120/1/4
f 1114/2/4 1118/2/4 1121/2/4
f 1120/1/4 1114/1/4 1121/1/4
f 1118/2/4 1119/2/4 1121/2/4
f 1116/1/4 1117/1/4 1122/1/4
f 1117/1/4 1110/1/4 1122/1/4
f 1111/1/4 1120/1/4 1123/1/4
f 1121/2/4 1119/2/4 1124/2/4
f 1120/2/4 1121/2/4 1124/2/4
f 1124/2/4 1119/2/4 1125/2/4
f 1116/1/4 1122/1/4 1126/1/4
f 1092/1/4 1098/1/4 1126/1/4
f 1122/1/4 1123/1/4 1126/1/4
f 1098/1/4 1116/1/4 1126/1/4
f 1126/1/4 1123/1/4 1127/1/4
f 1123/1/4 1120/1/4 1128/1/4
f 1127/1/4 1123/1/4 1128/1/4
f 1128/1/4 1120/1/4 1129/1/4
f 1127/1/4 1128/1/4 1130/1/4
f 1128/4/4 1129/4/4 1130/4/4
f 1129/1/4 1120/1/4 1131/1/4
f 1130/4/4 1129/4/4 1131/4/4
f 1124/3/4 1125/3/4 1132/3/4
f 1120/2/4 1124/2/4 1132/2/4
f 1125/2/4 1119/2/4 1133/2/4
f 1132/3/4 1125/3/4 1133/3/4
f 1126/4/4 1127/4/4 1134/4/4
f 1092/1/4 1126/1/4 1134/1/4
f 1130/1/4 1131/1/4 1135/1/4
f 1134/4/4 1127/4/4 1135/4/4
f 1127/1/4 1130/1/4 1135/1/4
f 1078/1/4 1092/1/4 1136/1/4
f 1017/1/4 1078/1/4 1136/1/4
f 1134/1/4 1135/1/4 1136/1/4
f 1092/1/4 1134/1/4 1136/1/4
f 1135/1/4 1131/1/4 1137/1/4
f 1136/1/4 1135/1/4 1137/1/4
f 1120/2/4 1132/2/4 1137/2/4
f 1132/2/4 1133/2/4 1137/2/4
f 1131/1/4 1120/1/4 1137/1/4
f 1133/2/4 1119/2/4 1138/2/4
f 1137/2/4 1133/2/4 1138/2/4
f 1143/1/5 1140/1/5 1139/1/5
f 1143/4/5 1141/4/5 1140/4/5
f 1144/1/5 1142/1/5 1141/1/5
f 1144/4/5 1141/4/5 1143/4/5
f 1145/1/5 1144/1/5 1143/1/5
f 1145/1/5 1142/1/5 1144/1/5
f 1146/1/5 1142/1/5 1145/1/5
f 1147/1/5 1145/1/5 1143/1/5
f 1148/1/5 1145/1/5 1147/1/5
f 1149/4/5 1146/4/5 1145/4/5
f 1149/1/5 1145/1/5 1148/1/5
f 1150/1/5 1142/1/5 1146/1/5
f 1150/4/5 1146/4/5 1149/4/5
f 1151/1/5 1149/1/5 1148/1/5
f 1151/1/5 1150/1/5 1149/1/5
f 1152/1/5 1150/1/5 1151/1/5
f 1153/1/5 1147/1/5 1143/1/5
f 1154/1/5 1151/1/5 1148/1/5
f 1155/1/5 1143/1/5 1139/1/5
f 1155/1/5 1154/1/5 1153/1/5
f 1155/1/5 1153/1/5 1143/1/5
f 1156/1/5 1154/1/5 1155/1/5
f 1157/1/5 1154/1/5 1156/1/5
f 1158/1/5 1154/1/5 1157/1/5
f 1159/1/5 1151/1/5 1154/1/5
f 1159/1/5 1154/1/5 1158/1/5
f 1159/4/5 1152/4/5 1151/4/5
f 1160/1/5 1150/1/5 1152/1/5
f 1160/4/5 1152/4/5 1159/4/5
f 1161/4/5 1156/4/5 1155/4/5
f 1161/1/5 1155/1/5 1139/1/5
f 1162/1/5 1157/1/5 1156/1/5
f 1162/4/5 1156/4/5 1161/4/5
f 1163/1/5 1159/1/5 1158/1/5
f 1163/1/5 1160/1/5 1159/1/5
f 1164/1/5 1160/1/5 1163/1/5
f 1165/1/5 1161/1/5 1139/1/5
f 1165/1/5 1162/1/5 1161/1/5
f 1166/1/5 1162/1/5 1165/1/5
f 1167/1/5 1157/1/5 1162/1/5
f 1167/1/5 1162/1/5 1166/1/5
f 1169/1/5 1167/1/5 1166/1/5
f 1169/1/5 1168/1/5 1167/1/5
f 1172/1/5 1160/1/5 1164/1/5
f 1173/1/5 1160/1/5 1172/1/5
f 1174/1/5 1160/1/5 1173/1/5
f 1175/1/5 1170/1/5 1169/1/5
f 1175/1/5 1169/1/5 1166/1/5
f 1176/1/5 1170/1/5 1175/1/5
f 1177/4/5 1166/4/5 1165/4/5
f 1177/1/5 1165/1/5 1139/1/5
f 1178/1/5 1175/1/5 1166/1/5
f 1178/4/5 1166/4/5 1177/4/5
f 1179/4/5 1176/4/5 1175/4/5
f 1179/1/5 1175/1/5 1178/1/5
f 1180/1/5 1170/1/5 1176/1/5
f 1180/4/5 1176/4/5 1179/4/5
f 1181/1/5 1160/1/5 1174/1/5
f 1181/1/5 1150/1/5 1160/1/5
f 1182/1/5 1142/1/5 1150/1/5
f 1182/1/5 1150/1/5 1181/1/5
f 1183/1/5 1170/1/5 1180/1/5
f 1183/1/5 1179/1/5 1178/1/5
f 1183/1/5 1180/1/5 1179/1/5
f 1183/1/5 1178/1/5 1177/1/5
f 1184/1/5 1172/1/5 1171/1/5
f 1184/1/5 1173/1/5 1172/1/5
f 1185/1/5 1173/1/5 1184/1/5
f 1185/1/5 1184/1/5 1183/1/5
f 1186/1/5 1181/1/5 1174/1/5
f 1187/1/5 1185/1/5 1183/1/5
f 1187/1/5 1186/1/5 1185/1/5
f 1188/1/5 1181/1/5 1186/1/5
f 1188/1/5 1186/1/5 1187/1/5
f 1189/1/5 1187/1/5 1183/1/5
f 1189/1/5 1183/1/5 1177/1/5
f 1190/1/5 1187/1/5 1189/1/5
f 1191/1/5 1177/1/5 1139/1/5
f 1191/1/5 1189/1/5 1177/1/5
f 1192/1/5 1189/1/5 1191/1/5
f 1193/1/5 1187/1/5 1190/1/5
f 1194/1/5 1187/1/5 1193/1/5
f 1195/1/5 1181/1/5 1188/1/5
f 1196/1/5 1142/1/5 1182/1/5
f 1197/1/5 1189/1/5 1192/1/5
f 1198/1/5 1193/1/5 1190/1/5
f 1199/4/5 1194/4/5 1193/4/5
f 1199/1/5 1193/1/5 1198/1/5
f 1200/1/5 1187/1/5 1194/1/5
f 1200/4/5 1194/4/5 1199/4/5
f 1201/1/5 1191/1/5 1139/1/5
f 1201/4/5 1192/4/5 1191/4/5
f 1202/1/5 1199/1/5 1198/1/5
f 1202/4/5 1192/4/5 1201/4/5
f 1202/1/5 1200/1/5 1199/1/5
f 1202/1/5 1197/1/5 1192/1/5
f 1202/1/5 1198/1/5 1197/1/5
f 1203/4/5 1188/4/5 1187/4/5
f 1203/1/5 1200/1/5 1202/1/5
f 1203/1/5 1202/1/5 1201/1/5
f 1203/1/5 1187/1/5 1200/1/5
f 1204/1/5 1195/1/5 1188/1/5
f 1204/4/5 1188/4/5 1203/4/5
f 1204/1/5 1196/1/5 1195/1/5
f 1205/1/5 1142/1/5 1196/1/5
f 1205/1/5 1196/1/5 1204/1/5
f 1206/1/5 1142/1/5 1205/1/5
f 1207/1/5 1203/1/5 1201/1/5
f 1207/1/5 1204/1/5 1203/1/5
f 1207/1/5 1205/1/5 1204/1/5
f 1208/1/5 1205/1/5 1207/1/5
f 1209/4/5 1206/4/5 1205/4/5
f 1209/1/5 1205/1/5 1208/1/5
f 1210/1/5 1142/1/5 1206/1/5
f 1210/4/5 1206/4/5 1209/4/5
f 1211/1/5 1207/1/5 1201/1/5
f 1212/1/5 1207/1/5 1211/1/5
f 1213/1/5 1211/1/5 1201/1/5
f 1214/4/5 1212/4/5 1211/4/5
f 1214/1/5 1211/1/5 1213/1/5
f 1215/1/5 1207/1/5 1212/1/5
f 1215/4/5 1212/4/5 1214/4/5
f 1216/1/5 1209/1/5 1208/1/5
f 1216/1/5 1210/1/5 1209/1/5
f 1217/1/5 1210/1/5 1216/1/5
f 1218/1/5 1201/1/5 1139/1/5
f 1218/1/5 1213/1/5 1201/1/5
f 1219/1/5 1213/1/5 1218/1/5
f 1220/1/5 1207/1/5 1215/1/5
f 1221/1/5 1216/1/5 1208/1/5
f 1222/1/5 1210/1/5 1217/1/5
f 1223/1/5 1210/1/5 1222/1/5
f 1224/1/5 1221/1/5 1220/1/5
f 1224/1/5 1216/1/5 1221/1/5
f 1225/1/5 1216/1/5 1224/1/5
f 1226/4/5 1219/4/5 1218/4/5
f 1226/1/5 1218/1/5 1139/1/5
f 1227/4/5 1219/4/5 1226/4/5
f 1228/1/5 1216/1/5 1225/1/5
f 1229/1/5 1222/1/5 1217/1/5
f 1230/4/5 1225/4/5 1224/4/5
f 1230/1/5 1224/1/5 1220/1/5
f 1231/1/5 1229/1/5 1228/1/5
f 1231/4/5 1225/4/5 1230/4/5
f 1231/1/5 1228/1/5 1225/1/5
f 1232/4/5 1223/4/5 1222/4/5
f 1232/1/5 1229/1/5 1231/1/5
f 1232/1/5 1222/1/5 1229/1/5
f 1233/1/5 1210/1/5 1223/1/5
f 1233/4/5 1223/4/5 1232/4/5
f 1234/1/5 1227/1/5 1226/1/5
f 1235/1/5 1232/1/5 1231/1/5
f 1235/1/5 1220/1/5 1215/1/5
f 1235/1/5 1233/1/5 1232/1/5
f 1235/1/5 1230/1/5 1220/1/5
f 1235/1/5 1231/1/5 1230/1/5
f 1236/1/5 1234/1/5 1226/1/5
f 1236/1/5 1235/1/5 1234/1/5
f 1236/1/5 1226/1/5 1139/1/5
f 1237/1/5 1210/1/5 1233/1/5
f 1237/1/5 1235/1/5 1236/1/5
f 1237/1/5 1233/1/5 1235/1/5
f 1237/1/5 1142/1/5 1210/1/5
f 1240/1/5 1239/1/5 1238/1/5
f 1241/1/5 1239/1/5 1240/1/5
f 1244/1/5 1243/1/5 1242/1/5
f 1246/1/5 1244/1/5 1242/1/5
f 1246/1/5 1245/1/5 1244/1/5
f 1247/1/5 1245/1/5 1246/1/5
f 1248/1/5 1245/1/5 1247/1/5
f 1249/1/5 1245/1/5 1248/1/5
f 1250/1/5 1245/1/5 1249/1/5
f 1251/1/5 1245/1/5 1250/1/5
f 1256/1/5 1250/1/5 1249/1/5
f 1257/1/5 1250/1/5 1256/1/5
f 1258/1/5 1253/1/5 1252/1/5
f 1259/1/5 1253/1/5 1258/1/5
f 1262/1/5 1255/1/5 1254/1/5
f 1263/1/5 1255/1/5 1262/1/5
f 1264/1/5 1261/1/5 1260/1/5
f 1265/1/5 1261/1/5 1264/1/5
f 1273/1/5 1269/1/5 1268/1/5
f 1273/1/5 1270/1/5 1269/1/5
f 1274/1/5 1267/1/5 1266/1/5
f 1275/1/5 1267/1/5 1274/1/5
f 1276/1/5 1270/1/5 1273/1/5
f 1277/1/5 1272/1/5 1271/1/5
f 1278/1/5 1272/1/5 1277/1/5
f 1279/1/5 1270/1/5 1276/1/5
f 1280/1/5 1270/1/5 1279/1/5
f 1283/1/5 1282/1/5 1281/1/5
f 1284/1/5 1282/1/5 1283/1/5
f 1287/4/5 1286/4/5 1285/4/5
f 1288/4/5 1286/4/5 1287/4/5
f 1289/1/5 1288/1/5 1287/1/5
f 1290/1/5 1288/1/5 1289/1/5
f 1293/1/5 1292/1/5 1291/1/5
f 1294/1/5 1292/1/5 1293/1/5
f 1297/1/5 1296/1/5 1295/1/5
f 1298/1/5 1296/1/5 1297/1/5
f 1301/1/5 1300/1/5 1299/1/5
f 1302/1/5 1300/1/5 1301/1/5
f 1305/1/5 1304/1/5 1303/1/5
f 1306/1/5 1304/1/5 1305/1/5
f 1309/1/5 1308/1/5 1307/1/5
f 1310/1/5 1308/1/5 1309/1/5
f 1313/1/5 1312/1/5 1311/1/5
f 1314/1/5 1312/1/5 1313/1/5
f 1317/1/5 1316/1/5 1315/1/5
f 1318/1/5 1316/1/5 1317/1/5
f 1325/1/5 1320/1/5 1319/1/5
f 1326/1/5 1320/1/5 1325/1/5
f 1327/1/5 1322/1/5 1321/1/5
f 1328/4/5 1323/4/5 1322/4/5
f 1328/1/5 1322/1/5 1327/1/5
f 1329/1/5 1324/1/5 1323/1/5
f 1329/4/5 1323/4/5 1328/4/5
f 1330/1/5 1324/1/5 1329/1/5
f 1333/1/5 1332/1/5 1331/1/5
f 1334/1/5 1332/1/5 1333/1/5
f 1337/1/5 1336/1/5 1335/1/5
f 1338/1/5 1336/1/5 1337/1/5
f 1343/1/5 1340/1/5 1339/1/5
f 1344/1/5 1340/1/5 1343/1/5
f 1345/1/5 1342/1/5 1341/1/5
f 1346/1/5 1342/1/5 1345/1/5
f 1349/1/5 1348/1/5 1347/1/5
f 1350/1/5 1348/1/5 1349/1/5
f 1353/1/5 1352/1/5 1351/1/5
f 1354/1/5 1352/1/5 1353/1/5
f 1357/1/5 1356/1/5 1355/1/5
f 1358/1/5 1356/1/5 1357/1/5
f 1361/1/5 1360/1/5 1359/1/5
f 1362/1/5 1360/1/5 1361/1/5
f 1363/1/6 1364/1/6 1365/1/6
f 1365/1/6 1364/1/6 1366/1/6
f 1367/1/6 1368/1/6 1371/1/6
f 1371/1/6 1368/1/6 1372/1/6
f 1369/1/6 1370/1/6 1373/1/6
f 1373/1/6 1370/1/6 1374/1/6
f 1375/1/6 1376/1/6 1377/1/6
f 1377/1/6 1376/1/6 1378/1/6
f 1379/1/6 1380/1/6 1381/1/6
f 1381/1/6 1380/1/6 1382/1/6
f 1383/1/6 1384/1/6 1385/1/6
f 1385/1/6 1384/1/6 1386/1/6
f 1387/1/6 1388/1/6 1389/1/6
f 1389/1/6 1388/1/6 1390/1/6
f 1391/1/6 1392/1/6 1393/1/6
f 1393/1/6 1392/1/6 1394/1/6
f 1395/1/6 1396/1/6 1397/1/6
f 1397/1/6 1396/1/6 1398/1/6
f 1399/1/6 1400/1/6 1401/1/6
f 1401/1/6 1400/1/6 1402/1/6
f 1403/1/6 1404/1/6 1405/1/6
f 1405/1/6 1404/1/6 1406/1/6
f 1407/1/6 1408/1/6 1409/1/6
f 1409/1/6 1408/1/6 1410/1/6
f 1411/1/6 1412/1/6 1413/1/6
f 1413/1/6 1412/1/6 1414/1/6
f 1415/1/6 1416/1/6 1417/1/6
f 1417/1/6 1416/1/6 1418/1/6
f 1421/1/6 1422/1/6 1423/1/6
f 1423/1/6 1422/1/6 1424/1/6
f 1419/1/6 1420/1/6 1425/1/6
f 1425/1/6 1420/1/6 1426/1/6
f 1427/1/6 1428/1/6 1429/1/6
f 1429/1/6 1428/1/6 1430/1/6
f 1431/1/6 1432/1/6 1433/1/6
f 1433/1/6 1432/1/6 1434/1/6
f 1435/1/6 1436/1/6 1437/1/6
f 1437/1/6 1436/1/6 1438/1/6
f 1441/2/6 1442/2/6 1443/2/6
f 1443/2/6 1442/2/6 1444/2/6
f 1439/2/6 1440/2/6 1445/2/6
f 1445/2/6 1440/2/6 1446/2/6
f 1446/2/6 1440/2/6 1447/2/6
f 1447/2/6 1440/2/6 1448/2/6
f 1446/2/6 1447/2/6 1449/2/6
f 1447/3/6 1448/3/6 1449/3/6
f 1449/3/6 1448/3/6 1450/3/6
f 1441/2/6 1443/2/6 1452/2/6
f 1443/3/6 1444/3/6 1453/3/6
f 1452/2/6 1443/2/6 1453/2/6
f 1453/3/6 1444/3/6 1454/3/6
f 1445/3/6 1446/3/6 1455/3/6
f 1446/2/6 1449/2/6 1456/2/6
f 1455/3/6 1446/3/6 1456/3/6
f 1449/2/6 1450/2/6 1456/2/6
f 1451/2/6 1452/2/6 1458/2/6
f 1453/2/6 1454/2/6 1458/2/6
f 1452/2/6 1453/2/6 1458/2/6
f 1456/2/6 1450/2/6 1459/2/6
f 1455/2/6 1456/2/6 1459/2/6
f 1459/2/6 1450/2/6 1460/2/6
f 1455/2/6 1459/2/6 1461/2/6
f 1457/2/6 1458/2/6 1462/2/6
f 1458/2/6 1454/2/6 1462/2/6
f 1462/2/6 1454/2/6 1463/2/6
f 1461/2/6 1459/2/6 1464/2/6
f 1459/3/6 1460/3/6 1465/3/6
f 1465/3/6 1460/3/6 1466/3/6
f 1464/2/6 1459/2/6 1467/2/6
f 1459/3/6 1465/3/6 1467/3/6
f 1465/2/6 1466/2/6 1468/2/6
f 1467/3/6 1465/3/6 1468/3/6
f 1457/2/6 1462/2/6 1470/2/6
f 1467/2/6 1468/2/6 1471/2/6
f 1464/2/6 1467/2/6 1471/2/6
f 1471/2/6 1468/2/6 1472/2/6
f 1468/2/6 1466/2/6 1473/2/6
f 1472/2/6 1468/2/6 1473/2/6
f 1473/2/6 1474/2/6 1475/2/6
f 1472/2/6 1473/2/6 1475/2/6
f 1469/2/6 1470/2/6 1476/2/6
f 1470/2/6 1462/2/6 1476/2/6
f 1476/2/6 1462/2/6 1477/2/6
f 1472/2/6 1475/2/6 1478/2/6
f 1478/2/6 1475/2/6 1479/2/6
f 1479/2/6 1475/2/6 1480/2/6
f 1469/2/6 1476/2/6 1481/2/6
f 1476/3/6 1477/3/6 1481/3/6
f 1481/3/6 1477/3/6 1482/3/6
f 1469/2/6 1481/2/6 1483/2/6
f 1481/2/6 1482/2/6 1483/2/6
f 1483/2/6 1482/2/6 1484/2/6
f 1483/3/6 1484/3/6 1486/3/6
f 1484/2/6 1482/2/6 1487/2/6
f 1487/2/6 1482/2/6 1488/2/6
f 1478/3/6 1479/3/6 1489/3/6
f 1479/2/6 1480/2/6 1490/2/6
f 1489/3/6 1479/3/6 1490/3/6
f 1489/2/6 1490/2/6 1491/2/6
f 1490/2/6 1480/2/6 1491/2/6
f 1491/2/6 1480/2/6 1492/2/6
f 1478/3/6 1489/3/6 1494/3/6
f 1489/2/6 1491/2/6 1495/2/6
f 1494/3/6 1489/3/6 1495/3/6
f 1491/3/6 1492/3/6 1496/3/6
f 1495/2/6 1491/2/6 1496/2/6
f 1496/3/6 1492/3/6 1497/3/6
f 1497/3/6 1492/3/6 1498/3/6
f 1485/3/6 1486/3/6 1499/3/6
f 1486/3/6 1484/3/6 1500/3/6
f 1499/3/6 1486/3/6 1500/3/6
f 1484/2/6 1487/2/6 1500/2/6
f 1500/2/6 1487/2/6 1501/2/6
f 1499/2/6 1500/2/6 1501/2/6
f 1499/2/6 1501/2/6 1502/2/6
f 1502/2/6 1501/2/6 1503/2/6
f 1496/2/6 1497/2/6 1504/2/6
f 1495/2/6 1496/2/6 1504/2/6
f 1493/2/6 1494/2/6 1504/2/6
f 1494/2/6 1495/2/6 1504/2/6
f 1504/2/6 1497/2/6 1505/2/6
f 1499/2/6 1502/2/6 1506/2/6
f 1506/2/6 1502/2/6 1507/2/6
f 1499/2/6 1506/2/6 1508/2/6
f 1508/2/6 1506/2/6 1509/2/6
f 1509/2/6 1510/2/6 1511/2/6
f 1493/2/6 1504/2/6 1513/2/6
f 1504/3/6 1505/3/6 1513/3/6
f 1505/2/6 1497/2/6 1514/2/6
f 1513/3/6 1505/3/6 1514/3/6
f 1511/2/6 1512/2/6 1515/2/6
f 1493/2/6 1513/2/6 1517/2/6
f 1513/2/6 1514/2/6 1517/2/6
f 1508/3/6 1509/3/6 1518/3/6
f 1511/2/6 1515/2/6 1519/2/6
f 1518/3/6 1509/3/6 1519/3/6
f 1515/2/6 1516/2/6 1519/2/6
f 1509/2/6 1511/2/6 1519/2/6
f 1519/2/6 1516/2/6 1520/2/6
f 1519/2/6 1520/2/6 1522/2/6
f 1520/2/6 1521/2/6 1522/2/6
f 1518/2/6 1519/2/6 1522/2/6
f 1522/2/6 1521/2/6 1523/2/6
f 1517/2/6 1514/2/6 1524/2/6
f 1523/2/6 1521/2/6 1525/2/6
f 1524/2/6 1514/2/6 1526/2/6
f 1526/2/6 1514/2/6 1527/2/6
f 1522/3/6 1523/3/6 1528/3/6
f 1528/3/6 1523/3/6 1529/3/6
f 1529/3/6 1523/3/6 1530/3/6
f 1530/3/6 1523/3/6 1531/3/6
f 1523/2/6 1525/2/6 1532/2/6
f 1531/3/6 1523/3/6 1532/3/6
f 1532/2/6 1525/2/6 1533/2/6
f 1531/2/6 1532/2/6 1534/2/6
f 1532/2/6 1533/2/6 1534/2/6
f 1534/2/6 1533/2/6 1535/2/6
f 1526/3/6 1527/3/6 1536/3/6
f 1527/2/6 1514/2/6 1537/2/6
f 1536/3/6 1527/3/6 1537/3/6
f 1534/3/6 1535/3/6 1538/3/6
f 1538/3/6 1535/3/6 1539/3/6
f 1537/2/6 1514/2/6 1540/2/6
f 1536/2/6 1537/2/6 1540/2/6
f 1514/2/6 1497/2/6 1541/2/6
f 1540/2/6 1514/2/6 1541/2/6
f 1539/3/6 1535/3/6 1542/3/6
f 1542/3/6 1535/3/6 1543/3/6
f 1536/2/6 1540/2/6 1544/2/6
f 1540/3/6 1541/3/6 1545/3/6
f 1544/2/6 1540/2/6 1545/2/6
f 1541/2/6 1497/2/6 1546/2/6
f 1545/3/6 1541/3/6 1546/3/6
f 1546/2/6 1497/2/6 1547/2/6
f 1543/3/6 1535/3/6 1548/3/6
f 1535/2/6 1533/2/6 1549/2/6
f 1548/3/6 1535/3/6 1549/3/6
f 1549/2/6 1533/2/6 1550/2/6
f 1555/2/6 1556/2/6 1557/2/6
f 1557/2/6 1556/2/6 1558/2/6
f 1551/2/6 1552/2/6 1559/2/6
f 1559/2/6 1552/2/6 1560/2/6
f 1553/2/6 1554/2/6 1561/2/6
f 1561/2/6 1554/2/6 1562/2/6
f 1561/3/6 1562/3/6 1563/3/6
f 1562/2/6 1554/2/6 1564/2/6
f 1563/3/6 1562/3/6 1564/3/6
f 1563/2/6 1564/2/6 1565/2/6
f 1564/2/6 1554/2/6 1565/2/6
f 1565/2/6 1554/2/6 1566/2/6
f 1566/2/6 1554/2/6 1567/2/6
f 1567/2/6 1554/2/6 1568/2/6
f 1557/3/6 1558/3/6 1569/3/6
f 1569/3/6 1558/3/6 1570/3/6
f 1558/2/6 1556/2/6 1571/2/6
f 1570/3/6 1558/3/6 1571/3/6
f 1571/2/6 1556/2/6 1572/2/6
f 1559/3/6 1560/3/6 1573/3/6
f 1551/2/6 1559/2/6 1573/2/6
f 1573/3/6 1560/3/6 1574/3/6
f 1563/2/6 1565/2/6 1575/2/6
f 1565/3/6 1566/3/6 1575/3/6
f 1566/2/6 1567/2/6 1576/2/6
f 1575/3/6 1566/3/6 1576/3/6
f 1576/2/6 1567/2/6 1577/2/6
f 1577/2/6 1567/2/6 1578/2/6
f 1563/2/6 1575/2/6 1579/2/6
f 1575/2/6 1576/2/6 1579/2/6
f 1576/2/6 1577/2/6 1579/2/6
f 1579/2/6 1577/2/6 1580/2/6
f 1573/2/6 1574/2/6 1581/2/6
f 1581/2/6 1574/2/6 1582/2/6
f 1569/2/6 1570/2/6 1584/2/6
f 1571/3/6 1572/3/6 1585/3/6
f 1570/3/6 1571/3/6 1585/3/6
f 1584/2/6 1570/2/6 1585/2/6
f 1572/2/6 1556/2/6 1586/2/6
f 1585/3/6 1572/3/6 1586/3/6
f 1573/2/6 1581/2/6 1587/2/6
f 1581/3/6 1582/3/6 1587/3/6
f 1587/3/6 1582/3/6 1588/3/6
f 1579/3/6 1580/3/6 1589/3/6
f 1580/2/6 1577/2/6 1590/2/6
f 1589/3/6 1580/3/6 1590/3/6
f 1589/2/6 1590/2/6 1591/2/6
f 1590/2/6 1577/2/6 1591/2/6
f 1591/2/6 1577/2/6 1592/2/6
f 1587/2/6 1588/2/6 1593/2/6
f 1589/2/6 1591/2/6 1595/2/6
f 1595/2/6 1591/2/6 1596/2/6
f 1596/2/6 1591/2/6 1597/2/6
f 1597/2/6 1591/2/6 1598/2/6
f 1584/2/6 1585/2/6 1599/2/6
f 1583/2/6 1584/2/6 1599/2/6
f 1585/2/6 1586/2/6 1599/2/6
f 1599/2/6 1586/2/6 1600/2/6
f 1598/2/6 1591/2/6 1601/2/6
f 1601/2/6 1591/2/6 1602/2/6
f 1600/2/6 1586/2/6 1603/2/6
f 1599/3/6 1600/3/6 1603/3/6
f 1603/2/6 1586/2/6 1604/2/6
f 1593/2/6 1594/2/6 1605/2/6
f 1587/2/6 1593/2/6 1605/2/6
f 1605/2/6 1594/2/6 1606/2/6
f 1597/3/6 1598/3/6 1607/3/6
f 1598/2/6 1601/2/6 1608/2/6
f 1607/3/6 1598/3/6 1608/3/6
f 1601/3/6 1602/3/6 1609/3/6
f 1608/2/6 1601/2/6 1609/2/6
f 1602/2/6 1591/2/6 1610/2/6
f 1609/3/6 1602/3/6 1610/3/6
f 1603/3/6 1604/3/6 1611/3/6
f 1599/3/6 1603/3/6 1611/3/6
f 1604/2/6 1586/2/6 1612/2/6
f 1611/3/6 1604/3/6 1612/3/6
f 1599/3/6 1611/3/6 1613/3/6
f 1611/2/6 1612/2/6 1614/2/6
f 1613/3/6 1611/3/6 1614/3/6
f 1608/2/6 1609/2/6 1615/2/6
f 1607/2/6 1608/2/6 1615/2/6
f 1609/2/6 1610/2/6 1615/2/6
f 1610/2/6 1591/2/6 1616/2/6
f 1615/2/6 1610/2/6 1616/2/6
f 1615/3/6 1616/3/6 1617/3/6
f 1617/3/6 1616/3/6 1618/3/6
f 1613/2/6 1614/2/6 1620/2/6
f 1551/2/6 1573/2/6 1621/2/6
f 1573/2/6 1587/2/6 1621/2/6
f 1587/2/6 1605/2/6 1621/2/6
f 1621/2/6 1605/2/6 1622/2/6
f 1622/2/6 1605/2/6 1623/2/6
f 1605/3/6 1606/3/6 1624/3/6
f 1623/2/6 1605/2/6 1624/2/6
f 1621/3/6 1622/3/6 1625/3/6
f 1622/2/6 1623/2/6 1626/2/6
f 1625/3/6 1622/3/6 1626/3/6
f 1607/2/6 1615/2/6 1627/2/6
f 1627/2/6 1615/2/6 1628/2/6
f 1626/2/6 1623/2/6 1629/2/6
f 1623/3/6 1624/3/6 1629/3/6
f 1625/2/6 1626/2/6 1629/2/6
f 1624/3/6 1606/3/6 1630/3/6
f 1629/3/6 1624/3/6 1630/3/6
f 1627/3/6 1628/3/6 1632/3/6
f 1628/2/6 1615/2/6 1633/2/6
f 1632/3/6 1628/3/6 1633/3/6
f 1615/3/6 1617/3/6 1634/3/6
f 1633/2/6 1615/2/6 1634/2/6
f 1634/3/6 1617/3/6 1635/3/6
f 1619/2/6 1620/2/6 1636/2/6
f 1614/2/6 1612/2/6 1637/2/6
f 1636/2/6 1620/2/6 1637/2/6
f 1620/2/6 1614/2/6 1637/2/6
f 1636/3/6 1637/3/6 1639/3/6
f 1638/3/6 1639/3/6 1641/3/6
f 1637/2/6 1612/2/6 1642/2/6
f 1639/3/6 1637/3/6 1642/3/6
f 1641/3/6 1639/3/6 1642/3/6
f 1612/2/6 1586/2/6 1643/2/6
f 1642/2/6 1612/2/6 1643/2/6
f 1634/2/6 1635/2/6 1644/2/6
f 1631/2/6 1632/2/6 1644/2/6
f 1632/2/6 1633/2/6 1644/2/6
f 1633/2/6 1634/2/6 1644/2/6
f 1644/2/6 1635/2/6 1645/2/6
f 1641/3/6 1642/3/6 1646/3/6
f 1642/3/6 1643/3/6 1646/3/6
f 1640/3/6 1641/3/6 1646/3/6
f 1646/3/6 1643/3/6 1647/3/6
f 1643/2/6 1586/2/6 1648/2/6
f 1647/3/6 1643/3/6 1648/3/6
f 1647/2/6 1648/2/6 1649/2/6
f 1649/2/6 1648/2/6 1650/2/6
f 1650/2/6 1648/2/6 1651/2/6
f 1651/2/6 1648/2/6 1652/2/6
f 1625/2/6 1629/2/6 1653/2/6
f 1653/2/6 1629/2/6 1654/2/6
f 1644/3/6 1645/3/6 1655/3/6
f 1631/2/6 1644/2/6 1655/2/6
f 1655/3/6 1645/3/6 1656/3/6
f 1652/2/6 1648/2/6 1657/2/6
f 1657/2/6 1648/2/6 1658/2/6
f 1655/2/6 1656/2/6 1659/2/6
f 1631/2/6 1655/2/6 1659/2/6
f 1659/2/6 1656/2/6 1660/2/6
f 1660/2/6 1656/2/6 1661/2/6
f 1661/2/6 1656/2/6 1662/2/6
f 1653/3/6 1654/3/6 1663/3/6
f 1625/2/6 1653/2/6 1663/2/6
f 1663/3/6 1654/3/6 1664/3/6
f 1631/2/6 1659/2/6 1665/2/6
f 1659/3/6 1660/3/6 1665/3/6
f 1660/2/6 1661/2/6 1666/2/6
f 1665/3/6 1660/3/6 1666/3/6
f 1658/2/6 1648/2/6 1667/2/6
f 1586/2/6 1556/2/6 1668/2/6
f 1667/2/6 1648/2/6 1668/2/6
f 1648/2/6 1586/2/6 1668/2/6
f 1663/2/6 1664/2/6 1669/2/6
f 1669/2/6 1664/2/6 1670/2/6
f 1661/3/6 1662/3/6 1671/3/6
f 1666/2/6 1661/2/6 1673/2/6
f 1671/3/6 1672/3/6 1673/3/6
f 1661/3/6 1671/3/6 1673/3/6
f 1665/2/6 1666/2/6 1673/2/6
f 1673/3/6 1672/3/6 1674/3/6
f 1667/3/6 1668/3/6 1676/3/6
f 1668/2/6 1556/2/6 1677/2/6
f 1676/3/6 1668/3/6 1677/3/6
f 1674/2/6 1675/2/6 1678/2/6
f 1673/2/6 1674/2/6 1678/2/6
f 1678/2/6 1675/2/6 1679/2/6
f 1663/2/6 1669/2/6 1680/2/6
f 1669/3/6 1670/3/6 1680/3/6
f 1680/3/6 1670/3/6 1681/3/6
f 1631/2/6 1665/2/6 1682/2/6
f 1665/2/6 1673/2/6 1682/2/6
f 1673/2/6 1678/2/6 1682/2/6
f 1682/2/6 1678/2/6 1683/2/6
f 1678/3/6 1679/3/6 1684/3/6
f 1680/2/6 1681/2/6 1686/2/6
f 1625/2/6 1663/2/6 1686/2/6
f 1663/2/6 1680/2/6 1686/2/6
f 1686/2/6 1681/2/6 1687/2/6
f 1682/3/6 1683/3/6 1688/3/6
f 1631/2/6 1682/2/6 1688/2/6
f 1683/2/6 1678/2/6 1689/2/6
f 1688/3/6 1683/3/6 1689/3/6
f 1684/3/6 1685/3/6 1690/3/6
f 1686/3/6 1687/3/6 1692/3/6
f 1687/2/6 1681/2/6 1693/2/6
f 1692/3/6 1687/3/6 1693/3/6
f 1693/2/6 1681/2/6 1694/2/6
f 1631/2/6 1688/2/6 1695/2/6
f 1688/2/6 1689/2/6 1695/2/6
f 1689/2/6 1678/2/6 1696/2/6
f 1695/2/6 1689/2/6 1696/2/6
f 1678/3/6 1684/3/6 1696/3/6
f 1684/3/6 1690/3/6 1696/3/6
f 1690/3/6 1691/3/6 1696/3/6
f 1696/3/6 1691/3/6 1697/3/6
f 1676/2/6 1677/2/6 1698/2/6
f 1677/2/6 1556/2/6 1699/2/6
f 1698/2/6 1677/2/6 1699/2/6
